EESchema Schematic File Version 4
EELAYER 30 0
EELAYER END
$Descr A4 11693 8268
encoding utf-8
Sheet 1 1
Title ""
Date ""
Rev ""
Comp ""
Comment1 ""
Comment2 ""
Comment3 ""
Comment4 ""
$EndDescr
$Comp
L MCU_Microchip_ATmega:ATmega328P-AU U1
U 1 1 5E0126F6
P 8450 2400
F 0 "U1" H 8450 811 50  0000 C CNN
F 1 "ATmega328P-AU" H 8450 720 50  0000 C CNN
F 2 "Package_QFP:TQFP-32_7x7mm_P0.8mm" H 8450 2400 50  0001 C CIN
F 3 "http://ww1.microchip.com/downloads/en/DeviceDoc/ATmega328_P%20AVR%20MCU%20with%20picoPower%20Technology%20Data%20Sheet%2040001984A.pdf" H 8450 2400 50  0001 C CNN
	1    8450 2400
	1    0    0    -1  
$EndComp
Text GLabel 9100 2100 2    50   Input ~ 0
A0
Text GLabel 9100 2200 2    50   Input ~ 0
A1
Text GLabel 9100 2300 2    50   Input ~ 0
A2
Text GLabel 9100 2400 2    50   Input ~ 0
A3
Text GLabel 7800 1400 0    50   Input ~ 0
A6
Text GLabel 7800 1500 0    50   Input ~ 0
A7
Text GLabel 9100 2900 2    50   Input ~ 0
RXI
Text GLabel 9100 3000 2    50   Input ~ 0
TXO
Text GLabel 9100 3100 2    50   Input ~ 0
D2
Text GLabel 9100 3200 2    50   Input ~ 0
D3
Text GLabel 9100 3300 2    50   Input ~ 0
D4
Text GLabel 9100 3400 2    50   Input ~ 0
D5
Text GLabel 9100 3500 2    50   Input ~ 0
D6
Text GLabel 9100 3600 2    50   Input ~ 0
D7
$Comp
L power:GND #PWR0101
U 1 1 5E0182C3
P 8450 4150
F 0 "#PWR0101" H 8450 3900 50  0001 C CNN
F 1 "GND" H 8455 3977 50  0000 C CNN
F 2 "" H 8450 4150 50  0001 C CNN
F 3 "" H 8450 4150 50  0001 C CNN
	1    8450 4150
	1    0    0    -1  
$EndComp
Text GLabel 9100 1200 2    50   Input ~ 0
D8
Text GLabel 9100 1300 2    50   Input ~ 0
D9
Text GLabel 9100 1400 2    50   Input ~ 0
D10
Text GLabel 9100 1500 2    50   Input ~ 0
MOSI
Text GLabel 9100 1600 2    50   Input ~ 0
MISO
Wire Wire Line
	9100 1200 9050 1200
Wire Wire Line
	9100 1300 9050 1300
Wire Wire Line
	9050 1400 9100 1400
Wire Wire Line
	9100 1500 9050 1500
Wire Wire Line
	9050 1600 9100 1600
Wire Wire Line
	9100 2100 9050 2100
Wire Wire Line
	9050 2200 9100 2200
Wire Wire Line
	9100 2300 9050 2300
Wire Wire Line
	9050 2400 9100 2400
Wire Wire Line
	9100 2900 9050 2900
Wire Wire Line
	9050 3000 9100 3000
Wire Wire Line
	9100 3100 9050 3100
Wire Wire Line
	9050 3200 9100 3200
Wire Wire Line
	9100 3300 9050 3300
Wire Wire Line
	9050 3400 9100 3400
Wire Wire Line
	9100 3500 9050 3500
Wire Wire Line
	9050 3600 9100 3600
Wire Wire Line
	8450 3900 8450 4150
Wire Wire Line
	7850 1400 7800 1400
Wire Wire Line
	7800 1500 7850 1500
Wire Wire Line
	8450 900  8450 850 
Wire Wire Line
	8450 850  8500 850 
Wire Wire Line
	8550 850  8550 900 
Wire Wire Line
	8500 700  8500 850 
Connection ~ 8500 850 
Wire Wire Line
	8500 850  8550 850 
$Comp
L power:VCC #PWR0102
U 1 1 5E01B6CB
P 8500 700
F 0 "#PWR0102" H 8500 550 50  0001 C CNN
F 1 "VCC" H 8517 873 50  0000 C CNN
F 2 "" H 8500 700 50  0001 C CNN
F 3 "" H 8500 700 50  0001 C CNN
	1    8500 700 
	1    0    0    -1  
$EndComp
$Comp
L Device:Resonator_Small Q1
U 1 1 5E01BE48
P 10100 1900
F 0 "Q1" V 10425 1850 50  0000 C CNN
F 1 "16MHz" V 10334 1850 50  0000 C CNN
F 2 "Crystal:Resonator_SMD_muRata_CSTxExxV-3Pin_3.0x1.1mm" H 10075 1900 50  0001 C CNN
F 3 "~" H 10075 1900 50  0001 C CNN
	1    10100 1900
	0    -1   -1   0   
$EndComp
Wire Wire Line
	10000 1800 9050 1800
Wire Wire Line
	9050 1900 9900 1900
Wire Wire Line
	9900 1900 9900 2000
Wire Wire Line
	9900 2000 10000 2000
$Comp
L power:GND #PWR0103
U 1 1 5E02192C
P 10400 1900
F 0 "#PWR0103" H 10400 1650 50  0001 C CNN
F 1 "GND" V 10405 1772 50  0000 R CNN
F 2 "" H 10400 1900 50  0001 C CNN
F 3 "" H 10400 1900 50  0001 C CNN
	1    10400 1900
	0    -1   -1   0   
$EndComp
Wire Wire Line
	10400 1900 10300 1900
Text GLabel 9600 1700 2    50   Input ~ 0
SCK
Wire Wire Line
	9600 1700 9500 1700
$Comp
L Device:R_Small R6
U 1 1 5E0233EA
P 9500 1500
F 0 "R6" H 9559 1546 50  0000 L CNN
F 1 "330" H 9559 1455 50  0000 L CNN
F 2 "Resistors_SMD:R_0603" H 9500 1500 50  0001 C CNN
F 3 "~" H 9500 1500 50  0001 C CNN
	1    9500 1500
	1    0    0    -1  
$EndComp
Wire Wire Line
	9500 1600 9500 1700
Connection ~ 9500 1700
Wire Wire Line
	9500 1700 9050 1700
Wire Wire Line
	9500 1300 9500 1400
$Comp
L Device:LED D3
U 1 1 5E0247AD
P 9500 1150
F 0 "D3" V 9447 1228 50  0000 L CNN
F 1 "Green" V 9538 1228 50  0000 L CNN
F 2 "LEDs:LED_0603" H 9500 1150 50  0001 C CNN
F 3 "~" H 9500 1150 50  0001 C CNN
	1    9500 1150
	0    1    1    0   
$EndComp
$Comp
L power:GND #PWR0104
U 1 1 5E024EBD
P 9500 900
F 0 "#PWR0104" H 9500 650 50  0001 C CNN
F 1 "GND" H 9505 727 50  0000 C CNN
F 2 "" H 9500 900 50  0001 C CNN
F 3 "" H 9500 900 50  0001 C CNN
	1    9500 900 
	-1   0    0    1   
$EndComp
Wire Wire Line
	9500 900  9500 1000
$Comp
L Device:C_Small C2
U 1 1 5E02717F
P 10350 2700
F 0 "C2" V 10121 2700 50  0000 C CNN
F 1 "0.1uF" V 10212 2700 50  0000 C CNN
F 2 "Capacitors_SMD:C_0603" H 10350 2700 50  0001 C CNN
F 3 "~" H 10350 2700 50  0001 C CNN
	1    10350 2700
	0    1    1    0   
$EndComp
$Comp
L Device:R_Small R2
U 1 1 5E027951
P 10000 2500
F 0 "R2" H 10059 2546 50  0000 L CNN
F 1 "10K" H 10059 2455 50  0000 L CNN
F 2 "Resistors_SMD:R_0603" H 10000 2500 50  0001 C CNN
F 3 "~" H 10000 2500 50  0001 C CNN
	1    10000 2500
	1    0    0    -1  
$EndComp
Wire Wire Line
	9050 2700 10000 2700
Wire Wire Line
	10000 2600 10000 2700
Connection ~ 10000 2700
Wire Wire Line
	10000 2700 10250 2700
Wire Wire Line
	10000 2300 10000 2400
$Comp
L power:VCC #PWR0105
U 1 1 5E02CE61
P 10000 2300
F 0 "#PWR0105" H 10000 2150 50  0001 C CNN
F 1 "VCC" H 10017 2473 50  0000 C CNN
F 2 "" H 10000 2300 50  0001 C CNN
F 3 "" H 10000 2300 50  0001 C CNN
	1    10000 2300
	1    0    0    -1  
$EndComp
Text GLabel 10550 2700 2    50   Input ~ 0
DTR
Wire Wire Line
	10550 2700 10450 2700
Wire Wire Line
	10000 2700 10000 2800
$Comp
L Switch:SW_DPST_x2 S1
U 1 1 5E03333E
P 10000 3000
F 0 "S1" V 9954 3098 50  0000 L CNN
F 1 "Reset" V 10045 3098 50  0000 L CNN
F 2 "Buttons_Switches_SMD:SW_SPST_SKQG" H 10000 3000 50  0001 C CNN
F 3 "~" H 10000 3000 50  0001 C CNN
	1    10000 3000
	0    1    1    0   
$EndComp
$Comp
L power:GND #PWR0106
U 1 1 5E033EF7
P 10000 3300
F 0 "#PWR0106" H 10000 3050 50  0001 C CNN
F 1 "GND" H 10005 3127 50  0000 C CNN
F 2 "" H 10000 3300 50  0001 C CNN
F 3 "" H 10000 3300 50  0001 C CNN
	1    10000 3300
	1    0    0    -1  
$EndComp
Wire Wire Line
	10000 3300 10000 3200
Wire Wire Line
	7500 1200 7850 1200
$Comp
L Device:C_Small C1
U 1 1 5E0358C4
P 7400 1200
F 0 "C1" V 7171 1200 50  0000 C CNN
F 1 "0.1uF" V 7262 1200 50  0000 C CNN
F 2 "Capacitors_SMD:C_0603" H 7400 1200 50  0001 C CNN
F 3 "~" H 7400 1200 50  0001 C CNN
	1    7400 1200
	0    1    1    0   
$EndComp
Wire Wire Line
	7200 1200 7300 1200
$Comp
L power:GND #PWR0107
U 1 1 5E036C26
P 7200 1200
F 0 "#PWR0107" H 7200 950 50  0001 C CNN
F 1 "GND" V 7205 1072 50  0000 R CNN
F 2 "" H 7200 1200 50  0001 C CNN
F 3 "" H 7200 1200 50  0001 C CNN
	1    7200 1200
	0    1    1    0   
$EndComp
$Comp
L Regulator_Linear:MIC5205-5.0YM5 U2
U 1 1 5E038816
P 5850 2050
F 0 "U2" H 5850 2392 50  0000 C CNN
F 1 "MIC5205-5.0YM5" H 5850 2301 50  0000 C CNN
F 2 "Package_TO_SOT_SMD:SOT-23-5" H 5850 2375 50  0001 C CNN
F 3 "http://ww1.microchip.com/downloads/en/DeviceDoc/20005785A.pdf" H 5850 2050 50  0001 C CNN
	1    5850 2050
	1    0    0    -1  
$EndComp
Wire Wire Line
	5550 1950 5450 1950
Wire Wire Line
	5450 1950 5450 2050
Wire Wire Line
	5450 2050 5550 2050
Wire Wire Line
	5000 1950 5100 1950
Connection ~ 5450 1950
Text GLabel 5000 1950 0    50   Input ~ 0
RAW
$Comp
L Device:CP1_Small C19
U 1 1 5E03F8CD
P 5100 2150
F 0 "C19" H 5191 2196 50  0000 L CNN
F 1 "10uF" H 5191 2105 50  0000 L CNN
F 2 "Capacitors_Tantalum_SMD:CP_Tantalum_Case-A_EIA-3216-18_Reflow" H 5100 2150 50  0001 C CNN
F 3 "~" H 5100 2150 50  0001 C CNN
	1    5100 2150
	1    0    0    -1  
$EndComp
Wire Wire Line
	5100 2050 5100 1950
Connection ~ 5100 1950
Wire Wire Line
	5100 1950 5450 1950
$Comp
L power:GND #PWR0108
U 1 1 5E042D47
P 5100 2400
F 0 "#PWR0108" H 5100 2150 50  0001 C CNN
F 1 "GND" H 5105 2227 50  0000 C CNN
F 2 "" H 5100 2400 50  0001 C CNN
F 3 "" H 5100 2400 50  0001 C CNN
	1    5100 2400
	1    0    0    -1  
$EndComp
Wire Wire Line
	5850 2400 5850 2350
$Comp
L power:GND #PWR0109
U 1 1 5E044613
P 5850 2400
F 0 "#PWR0109" H 5850 2150 50  0001 C CNN
F 1 "GND" H 5855 2227 50  0000 C CNN
F 2 "" H 5850 2400 50  0001 C CNN
F 3 "" H 5850 2400 50  0001 C CNN
	1    5850 2400
	1    0    0    -1  
$EndComp
Wire Wire Line
	5100 2250 5100 2400
Wire Wire Line
	6500 1950 6250 1950
Wire Wire Line
	6250 2050 6250 1950
Connection ~ 6250 1950
Wire Wire Line
	6250 1950 6150 1950
$Comp
L Device:LED LED1
U 1 1 5E04957E
P 6250 2200
F 0 "LED1" V 6289 2082 50  0000 R CNN
F 1 "Red" V 6198 2082 50  0000 R CNN
F 2 "LEDs:LED_0603" H 6250 2200 50  0001 C CNN
F 3 "~" H 6250 2200 50  0001 C CNN
	1    6250 2200
	0    -1   -1   0   
$EndComp
$Comp
L Device:R_Small R11
U 1 1 5E04ACC9
P 6250 2550
F 0 "R11" H 6309 2596 50  0000 L CNN
F 1 "10K" H 6309 2505 50  0000 L CNN
F 2 "Resistors_SMD:R_0603" H 6250 2550 50  0001 C CNN
F 3 "~" H 6250 2550 50  0001 C CNN
	1    6250 2550
	1    0    0    -1  
$EndComp
Wire Wire Line
	6250 2450 6250 2350
$Comp
L power:GND #PWR0110
U 1 1 5E04CCA9
P 6250 2750
F 0 "#PWR0110" H 6250 2500 50  0001 C CNN
F 1 "GND" H 6255 2577 50  0000 C CNN
F 2 "" H 6250 2750 50  0001 C CNN
F 3 "" H 6250 2750 50  0001 C CNN
	1    6250 2750
	1    0    0    -1  
$EndComp
Wire Wire Line
	6250 2750 6250 2650
$Comp
L Jumper:SolderJumper_2_Bridged SJ1
U 1 1 5E04EC99
P 6650 1950
F 0 "SJ1" H 6650 2063 50  0000 C CNN
F 1 "SolderJumper_2_Bridged" H 6650 2064 50  0001 C CNN
F 2 "Jumper:SolderJumper-2_P1.3mm_Open_RoundedPad1.0x1.5mm" H 6650 1950 50  0001 C CNN
F 3 "~" H 6650 1950 50  0001 C CNN
	1    6650 1950
	1    0    0    -1  
$EndComp
$Comp
L Device:CP1_Small C13
U 1 1 5E050BD9
P 6800 2150
F 0 "C13" H 6891 2196 50  0000 L CNN
F 1 "10uF" H 6891 2105 50  0000 L CNN
F 2 "Capacitors_Tantalum_SMD:CP_Tantalum_Case-A_EIA-3216-18_Reflow" H 6800 2150 50  0001 C CNN
F 3 "~" H 6800 2150 50  0001 C CNN
	1    6800 2150
	1    0    0    -1  
$EndComp
$Comp
L power:GND #PWR0111
U 1 1 5E050BE3
P 6800 2400
F 0 "#PWR0111" H 6800 2150 50  0001 C CNN
F 1 "GND" H 6805 2227 50  0000 C CNN
F 2 "" H 6800 2400 50  0001 C CNN
F 3 "" H 6800 2400 50  0001 C CNN
	1    6800 2400
	1    0    0    -1  
$EndComp
Wire Wire Line
	6800 2250 6800 2400
Wire Wire Line
	6800 2050 6800 1950
Connection ~ 6800 1950
$Comp
L Device:C_Small C10
U 1 1 5E0552BE
P 7150 2150
F 0 "C10" H 7058 2104 50  0000 R CNN
F 1 "0.1uF" H 7058 2195 50  0000 R CNN
F 2 "Capacitors_SMD:C_0603" H 7150 2150 50  0001 C CNN
F 3 "~" H 7150 2150 50  0001 C CNN
	1    7150 2150
	-1   0    0    1   
$EndComp
Wire Wire Line
	7150 2050 7150 1950
Wire Wire Line
	6800 1950 7150 1950
Wire Wire Line
	7150 2400 7150 2250
$Comp
L power:GND #PWR0112
U 1 1 5E058AEF
P 7150 2400
F 0 "#PWR0112" H 7150 2150 50  0001 C CNN
F 1 "GND" H 7155 2227 50  0000 C CNN
F 2 "" H 7150 2400 50  0001 C CNN
F 3 "" H 7150 2400 50  0001 C CNN
	1    7150 2400
	1    0    0    -1  
$EndComp
Wire Wire Line
	7250 1850 7250 1950
Wire Wire Line
	7250 1950 7150 1950
Connection ~ 7150 1950
$Comp
L power:VCC #PWR0113
U 1 1 5E05ACA4
P 7250 1850
F 0 "#PWR0113" H 7250 1700 50  0001 C CNN
F 1 "VCC" H 7267 2023 50  0000 C CNN
F 2 "" H 7250 1850 50  0001 C CNN
F 3 "" H 7250 1850 50  0001 C CNN
	1    7250 1850
	1    0    0    -1  
$EndComp
$Comp
L Connector_Generic_MountingPin:Conn_01x12_MountingPin JP6
U 1 1 5E05C04D
P 6700 4400
F 0 "JP6" H 6788 4314 50  0000 L CNN
F 1 "Conn_01x12_MountingPin" H 6788 4223 50  0000 L CNN
F 2 "Pin_Headers:Pin_Header_Straight_1x12_Pitch2.54mm" H 6700 4400 50  0001 C CNN
F 3 "~" H 6700 4400 50  0001 C CNN
	1    6700 4400
	1    0    0    -1  
$EndComp
$Comp
L Connector_Generic_MountingPin:Conn_01x12_MountingPin JP7
U 1 1 5E061941
P 5400 4500
F 0 "JP7" H 5488 4322 50  0000 L CNN
F 1 "Conn_01x12_MountingPin" H 5488 4413 50  0000 L CNN
F 2 "Pin_Headers:Pin_Header_Straight_1x12_Pitch2.54mm" H 5400 4500 50  0001 C CNN
F 3 "~" H 5400 4500 50  0001 C CNN
	1    5400 4500
	-1   0    0    1   
$EndComp
$Comp
L Connector_Generic_MountingPin:Conn_01x06_MountingPin JP1
U 1 1 5E0650DA
P 5400 3300
F 0 "JP1" H 5488 3122 50  0000 L CNN
F 1 "Conn_01x06_MountingPin" H 5488 3213 50  0000 L CNN
F 2 "Pin_Headers:Pin_Header_Straight_1x06_Pitch2.54mm" H 5400 3300 50  0001 C CNN
F 3 "~" H 5400 3300 50  0001 C CNN
	1    5400 3300
	-1   0    0    1   
$EndComp
$Comp
L Connector_Generic_MountingPin:Conn_01x02_MountingPin JP2
U 1 1 5E0695C1
P 6800 3000
F 0 "JP2" H 6888 2914 50  0000 L CNN
F 1 "Conn_01x02_MountingPin" H 6888 2823 50  0000 L CNN
F 2 "Pin_Headers:Pin_Header_Straight_1x02_Pitch2.54mm" H 6800 3000 50  0001 C CNN
F 3 "~" H 6800 3000 50  0001 C CNN
	1    6800 3000
	1    0    0    -1  
$EndComp
$Comp
L Connector_Generic_MountingPin:Conn_01x02_MountingPin JP3
U 1 1 5E06B95B
P 6800 3400
F 0 "JP3" H 6888 3314 50  0000 L CNN
F 1 "Conn_01x02_MountingPin" H 6888 3223 50  0000 L CNN
F 2 "Pin_Headers:Pin_Header_Straight_1x02_Pitch2.54mm" H 6800 3400 50  0001 C CNN
F 3 "~" H 6800 3400 50  0001 C CNN
	1    6800 3400
	1    0    0    -1  
$EndComp
Text GLabel 5650 3000 2    50   Input ~ 0
GND
Text GLabel 5650 3100 2    50   Input ~ 0
GND
Text GLabel 5650 3200 2    50   Input ~ 0
VCC
Text GLabel 5650 3300 2    50   Input ~ 0
RXI
Text GLabel 5650 3400 2    50   Input ~ 0
TXO
Text GLabel 5650 3500 2    50   Input ~ 0
DTR
Wire Wire Line
	5650 3000 5600 3000
Wire Wire Line
	5600 3100 5650 3100
Wire Wire Line
	5650 3200 5600 3200
Wire Wire Line
	5600 3300 5650 3300
Wire Wire Line
	5650 3400 5600 3400
Wire Wire Line
	5600 3500 5650 3500
Text GLabel 5650 3900 2    50   Input ~ 0
TXO
Text GLabel 5650 4000 2    50   Input ~ 0
RXI
Text GLabel 5650 4100 2    50   Input ~ 0
RESET
Text GLabel 5650 4200 2    50   Input ~ 0
GND
Text GLabel 5650 4300 2    50   Input ~ 0
D2
Text GLabel 5650 4400 2    50   Input ~ 0
D3
Text GLabel 5650 4500 2    50   Input ~ 0
D4
Text GLabel 5650 4600 2    50   Input ~ 0
D5
Text GLabel 5650 4700 2    50   Input ~ 0
D6
Text GLabel 5650 4800 2    50   Input ~ 0
D7
Text GLabel 5650 4900 2    50   Input ~ 0
D8
Text GLabel 5650 5000 2    50   Input ~ 0
D9
Wire Wire Line
	5650 3900 5600 3900
Wire Wire Line
	5600 4000 5650 4000
Wire Wire Line
	5650 4100 5600 4100
Wire Wire Line
	5600 4200 5650 4200
Wire Wire Line
	5650 4300 5600 4300
Wire Wire Line
	5600 4400 5650 4400
Wire Wire Line
	5650 4500 5600 4500
Wire Wire Line
	5600 4600 5650 4600
Wire Wire Line
	5650 4700 5600 4700
Wire Wire Line
	5600 4800 5650 4800
Wire Wire Line
	5650 4900 5600 4900
Wire Wire Line
	5600 5000 5650 5000
Text GLabel 6450 3900 0    50   Input ~ 0
RAW
Text GLabel 6450 4000 0    50   Input ~ 0
GND
Text GLabel 6450 4100 0    50   Input ~ 0
RESET
Text GLabel 6450 4200 0    50   Input ~ 0
VCC
Text GLabel 6450 4300 0    50   Input ~ 0
A3
Text GLabel 6450 4400 0    50   Input ~ 0
A2
Text GLabel 6450 4500 0    50   Input ~ 0
A1
Text GLabel 6450 4600 0    50   Input ~ 0
A0
Text GLabel 6450 4700 0    50   Input ~ 0
SCK
Text GLabel 6450 4800 0    50   Input ~ 0
MISO
Text GLabel 6450 4900 0    50   Input ~ 0
MOSI
Text GLabel 6450 5000 0    50   Input ~ 0
D10
Wire Wire Line
	6450 5000 6500 5000
Wire Wire Line
	6500 4900 6450 4900
Wire Wire Line
	6450 4800 6500 4800
Wire Wire Line
	6500 4700 6450 4700
Wire Wire Line
	6450 4600 6500 4600
Wire Wire Line
	6500 4500 6450 4500
Wire Wire Line
	6450 4400 6500 4400
Wire Wire Line
	6500 4300 6450 4300
Wire Wire Line
	6450 4200 6500 4200
Wire Wire Line
	6500 4100 6450 4100
Wire Wire Line
	6450 4000 6500 4000
Wire Wire Line
	6500 3900 6450 3900
Text GLabel 6550 3400 0    50   Input ~ 0
A6
Text GLabel 6550 3500 0    50   Input ~ 0
A7
Wire Wire Line
	6550 3500 6600 3500
Wire Wire Line
	6600 3400 6550 3400
$Comp
L power:PWR_FLAG #FLG0101
U 1 1 5E0F7A42
P 8550 4900
F 0 "#FLG0101" H 8550 4975 50  0001 C CNN
F 1 "PWR_FLAG" H 8550 5073 50  0000 C CNN
F 2 "" H 8550 4900 50  0001 C CNN
F 3 "~" H 8550 4900 50  0001 C CNN
	1    8550 4900
	1    0    0    -1  
$EndComp
$Comp
L power:PWR_FLAG #FLG0102
U 1 1 5E0F7E40
P 9000 4900
F 0 "#FLG0102" H 9000 4975 50  0001 C CNN
F 1 "PWR_FLAG" H 9000 5073 50  0000 C CNN
F 2 "" H 9000 4900 50  0001 C CNN
F 3 "~" H 9000 4900 50  0001 C CNN
	1    9000 4900
	1    0    0    -1  
$EndComp
$Comp
L power:GND #PWR0114
U 1 1 5E0F85A5
P 8550 4950
F 0 "#PWR0114" H 8550 4700 50  0001 C CNN
F 1 "GND" H 8555 4777 50  0000 C CNN
F 2 "" H 8550 4950 50  0001 C CNN
F 3 "" H 8550 4950 50  0001 C CNN
	1    8550 4950
	1    0    0    -1  
$EndComp
Wire Wire Line
	8550 4950 8550 4900
$Comp
L power:VCC #PWR0115
U 1 1 5E0FC7F0
P 9000 4950
F 0 "#PWR0115" H 9000 4800 50  0001 C CNN
F 1 "VCC" H 9018 5123 50  0000 C CNN
F 2 "" H 9000 4950 50  0001 C CNN
F 3 "" H 9000 4950 50  0001 C CNN
	1    9000 4950
	-1   0    0    1   
$EndComp
Wire Wire Line
	9000 4950 9000 4900
$EndSCHEMATC
