(export (version D)
  (design
    (source /Users/lukas/Desktop/Projects/Circuits/diy_arduino_pm/arduinopm-v3/arduinopm-conf2/arduinopm.sch)
    (date "Wednesday, 25 December 2019 at 21.07.24")
    (tool "Eeschema (5.1.5-0-10_14)")
    (sheet (number 1) (name /) (tstamps /)
      (title_block
        (title)
        (company)
        (rev)
        (date)
        (source arduinopm.sch)
        (comment (number 1) (value ""))
        (comment (number 2) (value ""))
        (comment (number 3) (value ""))
        (comment (number 4) (value "")))))
  (components
    (comp (ref U1)
      (value ATmega328P-AU)
      (footprint Package_QFP:TQFP-32_7x7mm_P0.8mm)
      (datasheet http://ww1.microchip.com/downloads/en/DeviceDoc/ATmega328_P%20AVR%20MCU%20with%20picoPower%20Technology%20Data%20Sheet%2040001984A.pdf)
      (libsource (lib MCU_Microchip_ATmega) (part ATmega328P-AU) (description "20MHz, 32kB Flash, 2kB SRAM, 1kB EEPROM, TQFP-32"))
      (sheetpath (names /) (tstamps /))
      (tstamp 5E0126F6))
    (comp (ref Q1)
      (value 16MHz)
      (footprint Crystal:Resonator_SMD_muRata_CSTxExxV-3Pin_3.0x1.1mm)
      (datasheet ~)
      (libsource (lib Device) (part Resonator_Small) (description "Three pin ceramic resonator, small symbol"))
      (sheetpath (names /) (tstamps /))
      (tstamp 5E01BE48))
    (comp (ref R6)
      (value 330)
      (footprint Resistors_SMD:R_0603)
      (datasheet ~)
      (libsource (lib Device) (part R_Small) (description "Resistor, small symbol"))
      (sheetpath (names /) (tstamps /))
      (tstamp 5E0233EA))
    (comp (ref D3)
      (value Green)
      (footprint LEDs:LED_0603)
      (datasheet ~)
      (libsource (lib Device) (part LED) (description "Light emitting diode"))
      (sheetpath (names /) (tstamps /))
      (tstamp 5E0247AD))
    (comp (ref C2)
      (value 0.1uF)
      (footprint Capacitors_SMD:C_0603)
      (datasheet ~)
      (libsource (lib Device) (part C_Small) (description "Unpolarized capacitor, small symbol"))
      (sheetpath (names /) (tstamps /))
      (tstamp 5E02717F))
    (comp (ref R2)
      (value 10K)
      (footprint Resistors_SMD:R_0603)
      (datasheet ~)
      (libsource (lib Device) (part R_Small) (description "Resistor, small symbol"))
      (sheetpath (names /) (tstamps /))
      (tstamp 5E027951))
    (comp (ref C1)
      (value 0.1uF)
      (footprint Capacitors_SMD:C_0603)
      (datasheet ~)
      (libsource (lib Device) (part C_Small) (description "Unpolarized capacitor, small symbol"))
      (sheetpath (names /) (tstamps /))
      (tstamp 5E0358C4))
    (comp (ref U2)
      (value MIC5205-5.0YM5)
      (footprint Package_TO_SOT_SMD:SOT-23-5)
      (datasheet http://ww1.microchip.com/downloads/en/DeviceDoc/20005785A.pdf)
      (libsource (lib Regulator_Linear) (part MIC5205-5.0YM5) (description "150mA low dropout linear regulator, fixed 5.0V output, SOT-23-5"))
      (sheetpath (names /) (tstamps /))
      (tstamp 5E038816))
    (comp (ref C19)
      (value 10uF)
      (footprint Capacitors_Tantalum_SMD:CP_Tantalum_Case-A_EIA-3216-18_Reflow)
      (datasheet ~)
      (libsource (lib Device) (part CP1_Small) (description "Polarized capacitor, small US symbol"))
      (sheetpath (names /) (tstamps /))
      (tstamp 5E03F8CD))
    (comp (ref LED1)
      (value Red)
      (footprint LEDs:LED_0603)
      (datasheet ~)
      (libsource (lib Device) (part LED) (description "Light emitting diode"))
      (sheetpath (names /) (tstamps /))
      (tstamp 5E04957E))
    (comp (ref R11)
      (value 10K)
      (footprint Resistors_SMD:R_0603)
      (datasheet ~)
      (libsource (lib Device) (part R_Small) (description "Resistor, small symbol"))
      (sheetpath (names /) (tstamps /))
      (tstamp 5E04ACC9))
    (comp (ref SJ1)
      (value SolderJumper_2_Bridged)
      (footprint Jumper:SolderJumper-2_P1.3mm_Open_RoundedPad1.0x1.5mm)
      (datasheet ~)
      (libsource (lib Jumper) (part SolderJumper_2_Bridged) (description "Solder Jumper, 2-pole, closed/bridged"))
      (sheetpath (names /) (tstamps /))
      (tstamp 5E04EC99))
    (comp (ref C13)
      (value 10uF)
      (footprint Capacitors_Tantalum_SMD:CP_Tantalum_Case-A_EIA-3216-18_Reflow)
      (datasheet ~)
      (libsource (lib Device) (part CP1_Small) (description "Polarized capacitor, small US symbol"))
      (sheetpath (names /) (tstamps /))
      (tstamp 5E050BD9))
    (comp (ref C10)
      (value 0.1uF)
      (footprint Capacitors_SMD:C_0603)
      (datasheet ~)
      (libsource (lib Device) (part C_Small) (description "Unpolarized capacitor, small symbol"))
      (sheetpath (names /) (tstamps /))
      (tstamp 5E0552BE))
    (comp (ref JP2)
      (value Conn_01x02_MountingPin)
      (footprint Pin_Headers:Pin_Header_Straight_1x02_Pitch2.54mm)
      (datasheet ~)
      (libsource (lib Connector_Generic_MountingPin) (part Conn_01x02_MountingPin) (description "Generic connectable mounting pin connector, single row, 01x02, script generated (kicad-library-utils/schlib/autogen/connector/)"))
      (sheetpath (names /) (tstamps /))
      (tstamp 5E0695C1))
    (comp (ref J1)
      (value Conn_01x08_MountingPin)
      (footprint Pin_Headers:Pin_Header_Straight_1x08_Pitch2.54mm)
      (datasheet ~)
      (libsource (lib Connector_Generic_MountingPin) (part Conn_01x08_MountingPin) (description "Generic connectable mounting pin connector, single row, 01x08, script generated (kicad-library-utils/schlib/autogen/connector/)"))
      (sheetpath (names /) (tstamps /))
      (tstamp 5E064A7A))
    (comp (ref J2)
      (value Conn_01x08_MountingPin)
      (footprint Pin_Headers:Pin_Header_Straight_1x08_Pitch2.54mm)
      (datasheet ~)
      (libsource (lib Connector_Generic_MountingPin) (part Conn_01x08_MountingPin) (description "Generic connectable mounting pin connector, single row, 01x08, script generated (kicad-library-utils/schlib/autogen/connector/)"))
      (sheetpath (names /) (tstamps /))
      (tstamp 5E06A20C))
    (comp (ref J3)
      (value Conn_01x08_MountingPin)
      (footprint Pin_Headers:Pin_Header_Straight_1x08_Pitch2.54mm)
      (datasheet ~)
      (libsource (lib Connector_Generic_MountingPin) (part Conn_01x08_MountingPin) (description "Generic connectable mounting pin connector, single row, 01x08, script generated (kicad-library-utils/schlib/autogen/connector/)"))
      (sheetpath (names /) (tstamps /))
      (tstamp 5E06C503))
    (comp (ref J4)
      (value Conn_01x08_MountingPin)
      (footprint Pin_Headers:Pin_Header_Straight_1x08_Pitch2.54mm)
      (datasheet ~)
      (libsource (lib Connector_Generic_MountingPin) (part Conn_01x08_MountingPin) (description "Generic connectable mounting pin connector, single row, 01x08, script generated (kicad-library-utils/schlib/autogen/connector/)"))
      (sheetpath (names /) (tstamps /))
      (tstamp 5E08F00C)))
  (libparts
    (libpart (lib Connector_Generic_MountingPin) (part Conn_01x02_MountingPin)
      (description "Generic connectable mounting pin connector, single row, 01x02, script generated (kicad-library-utils/schlib/autogen/connector/)")
      (docs ~)
      (footprints
        (fp Connector*:*_1x??-1MP*))
      (fields
        (field (name Reference) J)
        (field (name Value) Conn_01x02_MountingPin))
      (pins
        (pin (num 1) (name Pin_1) (type passive))
        (pin (num 2) (name Pin_2) (type passive))
        (pin (num MP) (name MountPin) (type passive))))
    (libpart (lib Connector_Generic_MountingPin) (part Conn_01x08_MountingPin)
      (description "Generic connectable mounting pin connector, single row, 01x08, script generated (kicad-library-utils/schlib/autogen/connector/)")
      (docs ~)
      (footprints
        (fp Connector*:*_1x??-1MP*))
      (fields
        (field (name Reference) J)
        (field (name Value) Conn_01x08_MountingPin))
      (pins
        (pin (num 1) (name Pin_1) (type passive))
        (pin (num 2) (name Pin_2) (type passive))
        (pin (num 3) (name Pin_3) (type passive))
        (pin (num 4) (name Pin_4) (type passive))
        (pin (num 5) (name Pin_5) (type passive))
        (pin (num 6) (name Pin_6) (type passive))
        (pin (num 7) (name Pin_7) (type passive))
        (pin (num 8) (name Pin_8) (type passive))
        (pin (num MP) (name MountPin) (type passive))))
    (libpart (lib Device) (part CP1_Small)
      (description "Polarized capacitor, small US symbol")
      (docs ~)
      (footprints
        (fp CP_*))
      (fields
        (field (name Reference) C)
        (field (name Value) CP1_Small))
      (pins
        (pin (num 1) (name ~) (type passive))
        (pin (num 2) (name ~) (type passive))))
    (libpart (lib Device) (part C_Small)
      (description "Unpolarized capacitor, small symbol")
      (docs ~)
      (footprints
        (fp C_*))
      (fields
        (field (name Reference) C)
        (field (name Value) C_Small))
      (pins
        (pin (num 1) (name ~) (type passive))
        (pin (num 2) (name ~) (type passive))))
    (libpart (lib Device) (part LED)
      (description "Light emitting diode")
      (docs ~)
      (footprints
        (fp LED*)
        (fp LED_SMD:*)
        (fp LED_THT:*))
      (fields
        (field (name Reference) D)
        (field (name Value) LED))
      (pins
        (pin (num 1) (name K) (type passive))
        (pin (num 2) (name A) (type passive))))
    (libpart (lib Device) (part R_Small)
      (description "Resistor, small symbol")
      (docs ~)
      (footprints
        (fp R_*))
      (fields
        (field (name Reference) R)
        (field (name Value) R_Small))
      (pins
        (pin (num 1) (name ~) (type passive))
        (pin (num 2) (name ~) (type passive))))
    (libpart (lib Device) (part Resonator_Small)
      (description "Three pin ceramic resonator, small symbol")
      (docs ~)
      (footprints
        (fp Filter*)
        (fp Resonator*))
      (fields
        (field (name Reference) Y)
        (field (name Value) Resonator_Small))
      (pins
        (pin (num 1) (name 1) (type passive))
        (pin (num 2) (name 2) (type passive))
        (pin (num 3) (name 3) (type passive))))
    (libpart (lib Jumper) (part SolderJumper_2_Bridged)
      (description "Solder Jumper, 2-pole, closed/bridged")
      (docs ~)
      (footprints
        (fp SolderJumper*Bridged*))
      (fields
        (field (name Reference) JP)
        (field (name Value) SolderJumper_2_Bridged))
      (pins
        (pin (num 1) (name A) (type passive))
        (pin (num 2) (name B) (type passive))))
    (libpart (lib MCU_Microchip_ATmega) (part ATmega48PV-10AU)
      (aliases
        (alias ATmega48P-20AU)
        (alias ATmega48A-AU)
        (alias ATmega48PA-AU)
        (alias ATmega88PV-10AU)
        (alias ATmega88P-20AU)
        (alias ATmega88A-AU)
        (alias ATmega88PA-AU)
        (alias ATmega168PV-10AU)
        (alias ATmega168P-20AU)
        (alias ATmega168A-AU)
        (alias ATmega168PA-AU)
        (alias ATmega328-AU)
        (alias ATmega328P-AU))
      (description "10MHz, 4kB Flash, 512B SRAM, 256B EEPROM, TQFP-32")
      (docs http://ww1.microchip.com/downloads/en/DeviceDoc/Atmel-8025-8-bit-AVR-Microcontroller-ATmega48P-88P-168P_Datasheet.pdf)
      (footprints
        (fp TQFP*7x7mm*P0.8mm*))
      (fields
        (field (name Reference) U)
        (field (name Value) ATmega48PV-10AU)
        (field (name Footprint) Package_QFP:TQFP-32_7x7mm_P0.8mm))
      (pins
        (pin (num 1) (name PD3) (type BiDi))
        (pin (num 2) (name PD4) (type BiDi))
        (pin (num 3) (name GND) (type power_in))
        (pin (num 4) (name VCC) (type power_in))
        (pin (num 5) (name GND) (type passive))
        (pin (num 6) (name VCC) (type passive))
        (pin (num 7) (name XTAL1/PB6) (type BiDi))
        (pin (num 8) (name XTAL2/PB7) (type BiDi))
        (pin (num 9) (name PD5) (type BiDi))
        (pin (num 10) (name PD6) (type BiDi))
        (pin (num 11) (name PD7) (type BiDi))
        (pin (num 12) (name PB0) (type BiDi))
        (pin (num 13) (name PB1) (type BiDi))
        (pin (num 14) (name PB2) (type BiDi))
        (pin (num 15) (name PB3) (type BiDi))
        (pin (num 16) (name PB4) (type BiDi))
        (pin (num 17) (name PB5) (type BiDi))
        (pin (num 18) (name AVCC) (type power_in))
        (pin (num 19) (name ADC6) (type input))
        (pin (num 20) (name AREF) (type passive))
        (pin (num 21) (name GND) (type passive))
        (pin (num 22) (name ADC7) (type input))
        (pin (num 23) (name PC0) (type BiDi))
        (pin (num 24) (name PC1) (type BiDi))
        (pin (num 25) (name PC2) (type BiDi))
        (pin (num 26) (name PC3) (type BiDi))
        (pin (num 27) (name PC4) (type BiDi))
        (pin (num 28) (name PC5) (type BiDi))
        (pin (num 29) (name ~RESET~/PC6) (type BiDi))
        (pin (num 30) (name PD0) (type BiDi))
        (pin (num 31) (name PD1) (type BiDi))
        (pin (num 32) (name PD2) (type BiDi))))
    (libpart (lib Regulator_Linear) (part AP131-15)
      (aliases
        (alias AP131-18)
        (alias AP131-20)
        (alias AP131-25)
        (alias AP131-28)
        (alias AP131-29)
        (alias AP131-30)
        (alias AP131-33)
        (alias AP131-35)
        (alias MIC5205-2.5YM5)
        (alias MIC5205-2.7YM5)
        (alias MIC5205-2.8YM5)
        (alias MIC5205-2.85YM5)
        (alias MIC5205-2.9YM5)
        (alias MIC5205-3.0YM5)
        (alias MIC5205-3.1YM5)
        (alias MIC5205-3.2YM5)
        (alias MIC5205-3.3YM5)
        (alias MIC5205-3.6YM5)
        (alias MIC5205-3.8YM5)
        (alias MIC5205-4.0YM5)
        (alias MIC5205-5.0YM5)
        (alias MIC5219-2.5YM5)
        (alias MIC5219-2.6YM5)
        (alias MIC5219-2.7YM5)
        (alias MIC5219-2.8YM5)
        (alias MIC5219-2.85YM5)
        (alias MIC5219-2.9YM5)
        (alias MIC5219-3.0YM5)
        (alias MIC5219-3.1YM5)
        (alias MIC5219-3.3YM5)
        (alias MIC5219-3.6YM5)
        (alias MIC5219-5.0YM5)
        (alias SPX3819M5-L-1-2)
        (alias SPX3819M5-L-1-5)
        (alias SPX3819M5-L-1-8)
        (alias SPX3819M5-L-2-5)
        (alias SPX3819M5-L-3-0)
        (alias SPX3819M5-L-3-3)
        (alias SPX3819M5-L-5-0))
      (description "300mA low dropout linear regulator, shutdown pin, 1.5V fixed positive output, SOT-23-5 package")
      (docs http://www.diodes.com/_files/datasheets/AP131.pdf)
      (footprints
        (fp SOT?23*))
      (fields
        (field (name Reference) U)
        (field (name Value) AP131-15)
        (field (name Footprint) Package_TO_SOT_SMD:SOT-23-5))
      (pins
        (pin (num 1) (name IN) (type power_in))
        (pin (num 2) (name GND) (type power_in))
        (pin (num 3) (name EN) (type input))
        (pin (num 4) (name BP) (type input))
        (pin (num 5) (name OUT) (type power_out)))))
  (libraries
    (library (logical Connector_Generic_MountingPin)
      (uri "/Library/Application Support/kicad/library/Connector_Generic_MountingPin.lib"))
    (library (logical Device)
      (uri "/Library/Application Support/kicad/library/Device.lib"))
    (library (logical Jumper)
      (uri "/Library/Application Support/kicad/library/Jumper.lib"))
    (library (logical MCU_Microchip_ATmega)
      (uri "/Library/Application Support/kicad/library/MCU_Microchip_ATmega.lib"))
    (library (logical Regulator_Linear)
      (uri "/Library/Application Support/kicad/library/Regulator_Linear.lib")))
  (nets
    (net (code 1) (name VCC)
      (node (ref R2) (pin 1))
      (node (ref J1) (pin 6))
      (node (ref U1) (pin 18))
      (node (ref C10) (pin 2))
      (node (ref J4) (pin 4))
      (node (ref U1) (pin 4))
      (node (ref U1) (pin 6))
      (node (ref C13) (pin 1))
      (node (ref SJ1) (pin 2)))
    (net (code 2) (name "Net-(C1-Pad1)")
      (node (ref U1) (pin 20))
      (node (ref C1) (pin 1)))
    (net (code 3) (name "Net-(U1-Pad27)")
      (node (ref U1) (pin 27)))
    (net (code 4) (name "Net-(U1-Pad28)")
      (node (ref U1) (pin 28)))
    (net (code 5) (name "Net-(Q1-Pad1)")
      (node (ref Q1) (pin 1))
      (node (ref U1) (pin 8)))
    (net (code 6) (name A0)
      (node (ref U1) (pin 23))
      (node (ref J4) (pin 8)))
    (net (code 7) (name A1)
      (node (ref J4) (pin 7))
      (node (ref U1) (pin 24)))
    (net (code 8) (name A2)
      (node (ref J4) (pin 6))
      (node (ref U1) (pin 25)))
    (net (code 9) (name A3)
      (node (ref J4) (pin 5))
      (node (ref U1) (pin 26)))
    (net (code 10) (name A6)
      (node (ref U1) (pin 19))
      (node (ref J1) (pin 1)))
    (net (code 11) (name A7)
      (node (ref U1) (pin 22))
      (node (ref J1) (pin 2)))
    (net (code 12) (name RXI)
      (node (ref J1) (pin 5))
      (node (ref J2) (pin 7))
      (node (ref U1) (pin 30)))
    (net (code 13) (name TXO)
      (node (ref J2) (pin 8))
      (node (ref U1) (pin 31))
      (node (ref J1) (pin 4)))
    (net (code 14) (name D2)
      (node (ref J2) (pin 4))
      (node (ref U1) (pin 32)))
    (net (code 15) (name D3)
      (node (ref U1) (pin 1))
      (node (ref J2) (pin 3)))
    (net (code 16) (name D4)
      (node (ref U1) (pin 2))
      (node (ref J2) (pin 2)))
    (net (code 17) (name D5)
      (node (ref U1) (pin 9))
      (node (ref J2) (pin 1)))
    (net (code 18) (name D6)
      (node (ref U1) (pin 10))
      (node (ref J3) (pin 8)))
    (net (code 19) (name D7)
      (node (ref U1) (pin 11))
      (node (ref J3) (pin 7)))
    (net (code 20) (name GND)
      (node (ref U1) (pin 21))
      (node (ref U2) (pin 2))
      (node (ref U1) (pin 3))
      (node (ref U1) (pin 5))
      (node (ref R11) (pin 2))
      (node (ref J1) (pin 7))
      (node (ref D3) (pin 1))
      (node (ref C13) (pin 2))
      (node (ref C10) (pin 1))
      (node (ref J1) (pin 8))
      (node (ref Q1) (pin 2))
      (node (ref C19) (pin 2))
      (node (ref J2) (pin 5))
      (node (ref J4) (pin 2))
      (node (ref C1) (pin 2)))
    (net (code 21) (name D8)
      (node (ref U1) (pin 12))
      (node (ref J3) (pin 6)))
    (net (code 22) (name D9)
      (node (ref U1) (pin 13))
      (node (ref J3) (pin 5)))
    (net (code 23) (name D10)
      (node (ref J3) (pin 4))
      (node (ref U1) (pin 14)))
    (net (code 24) (name MOSI)
      (node (ref U1) (pin 15))
      (node (ref J3) (pin 3)))
    (net (code 25) (name MISO)
      (node (ref U1) (pin 16))
      (node (ref J3) (pin 2)))
    (net (code 26) (name "Net-(Q1-Pad3)")
      (node (ref U1) (pin 7))
      (node (ref Q1) (pin 3)))
    (net (code 27) (name "Net-(D3-Pad2)")
      (node (ref D3) (pin 2))
      (node (ref R6) (pin 1)))
    (net (code 28) (name SCK)
      (node (ref U1) (pin 17))
      (node (ref J3) (pin 1))
      (node (ref R6) (pin 2)))
    (net (code 29) (name DTR)
      (node (ref J1) (pin 3))
      (node (ref C2) (pin 1)))
    (net (code 30) (name "Net-(U2-Pad4)")
      (node (ref U2) (pin 4)))
    (net (code 31) (name RAW)
      (node (ref J4) (pin 1))
      (node (ref U2) (pin 1))
      (node (ref U2) (pin 3))
      (node (ref C19) (pin 1)))
    (net (code 32) (name "Net-(LED1-Pad2)")
      (node (ref U2) (pin 5))
      (node (ref LED1) (pin 2))
      (node (ref SJ1) (pin 1)))
    (net (code 33) (name "Net-(LED1-Pad1)")
      (node (ref LED1) (pin 1))
      (node (ref R11) (pin 1)))
    (net (code 34) (name "Net-(JP2-PadMP)")
      (node (ref JP2) (pin MP)))
    (net (code 35) (name "Net-(JP2-Pad1)")
      (node (ref JP2) (pin 1)))
    (net (code 36) (name "Net-(JP2-Pad2)")
      (node (ref JP2) (pin 2)))
    (net (code 37) (name RESET)
      (node (ref J2) (pin 6))
      (node (ref J4) (pin 3))
      (node (ref R2) (pin 2))
      (node (ref C2) (pin 2))
      (node (ref U1) (pin 29)))
    (net (code 38) (name "Net-(J1-PadMP)")
      (node (ref J1) (pin MP)))
    (net (code 39) (name "Net-(J2-PadMP)")
      (node (ref J2) (pin MP)))
    (net (code 40) (name "Net-(J3-PadMP)")
      (node (ref J3) (pin MP)))
    (net (code 41) (name "Net-(J4-PadMP)")
      (node (ref J4) (pin MP)))))