(kicad_pcb (version 20171130) (host pcbnew "(5.1.5-0-10_14)")

  (general
    (thickness 1.6)
    (drawings 4)
    (tracks 291)
    (zones 0)
    (modules 19)
    (nets 37)
  )

  (page A4)
  (layers
    (0 F.Cu signal)
    (31 B.Cu signal)
    (32 B.Adhes user)
    (33 F.Adhes user)
    (34 B.Paste user)
    (35 F.Paste user)
    (36 B.SilkS user)
    (37 F.SilkS user)
    (38 B.Mask user)
    (39 F.Mask user)
    (40 Dwgs.User user)
    (41 Cmts.User user)
    (42 Eco1.User user)
    (43 Eco2.User user)
    (44 Edge.Cuts user)
    (45 Margin user)
    (46 B.CrtYd user)
    (47 F.CrtYd user)
    (48 B.Fab user)
    (49 F.Fab user)
  )

  (setup
    (last_trace_width 0.25)
    (trace_clearance 0.2)
    (zone_clearance 0.508)
    (zone_45_only no)
    (trace_min 0.2)
    (via_size 0.8)
    (via_drill 0.4)
    (via_min_size 0.4)
    (via_min_drill 0.3)
    (uvia_size 0.3)
    (uvia_drill 0.1)
    (uvias_allowed no)
    (uvia_min_size 0.2)
    (uvia_min_drill 0.1)
    (edge_width 0.1)
    (segment_width 0.2)
    (pcb_text_width 0.3)
    (pcb_text_size 1.5 1.5)
    (mod_edge_width 0.15)
    (mod_text_size 1 1)
    (mod_text_width 0.15)
    (pad_size 1.524 1.524)
    (pad_drill 0.762)
    (pad_to_mask_clearance 0)
    (aux_axis_origin 0 0)
    (visible_elements FFFFFF7F)
    (pcbplotparams
      (layerselection 0x010fc_ffffffff)
      (usegerberextensions false)
      (usegerberattributes false)
      (usegerberadvancedattributes false)
      (creategerberjobfile false)
      (excludeedgelayer true)
      (linewidth 0.100000)
      (plotframeref false)
      (viasonmask false)
      (mode 1)
      (useauxorigin false)
      (hpglpennumber 1)
      (hpglpenspeed 20)
      (hpglpendiameter 15.000000)
      (psnegative false)
      (psa4output false)
      (plotreference true)
      (plotvalue true)
      (plotinvisibletext false)
      (padsonsilk false)
      (subtractmaskfromsilk false)
      (outputformat 1)
      (mirror false)
      (drillshape 1)
      (scaleselection 1)
      (outputdirectory ""))
  )

  (net 0 "")
  (net 1 GND)
  (net 2 "Net-(C1-Pad1)")
  (net 3 DTR)
  (net 4 VCC)
  (net 5 RAW)
  (net 6 "Net-(D3-Pad2)")
  (net 7 A6)
  (net 8 A7)
  (net 9 TXO)
  (net 10 RXI)
  (net 11 D5)
  (net 12 D4)
  (net 13 D3)
  (net 14 D2)
  (net 15 RESET)
  (net 16 SCK)
  (net 17 MISO)
  (net 18 MOSI)
  (net 19 D10)
  (net 20 D9)
  (net 21 D8)
  (net 22 D7)
  (net 23 D6)
  (net 24 A3)
  (net 25 A2)
  (net 26 A1)
  (net 27 A0)
  (net 28 "Net-(JP2-Pad1)")
  (net 29 "Net-(JP2-Pad2)")
  (net 30 "Net-(LED1-Pad2)")
  (net 31 "Net-(LED1-Pad1)")
  (net 32 "Net-(Q1-Pad3)")
  (net 33 "Net-(Q1-Pad1)")
  (net 34 "Net-(U1-Pad28)")
  (net 35 "Net-(U1-Pad27)")
  (net 36 "Net-(U2-Pad4)")

  (net_class Default "This is the default net class."
    (clearance 0.2)
    (trace_width 0.25)
    (via_dia 0.8)
    (via_drill 0.4)
    (uvia_dia 0.3)
    (uvia_drill 0.1)
    (add_net A0)
    (add_net A1)
    (add_net A2)
    (add_net A3)
    (add_net A6)
    (add_net A7)
    (add_net D10)
    (add_net D2)
    (add_net D3)
    (add_net D4)
    (add_net D5)
    (add_net D6)
    (add_net D7)
    (add_net D8)
    (add_net D9)
    (add_net DTR)
    (add_net GND)
    (add_net MISO)
    (add_net MOSI)
    (add_net "Net-(C1-Pad1)")
    (add_net "Net-(D3-Pad2)")
    (add_net "Net-(JP2-Pad1)")
    (add_net "Net-(JP2-Pad2)")
    (add_net "Net-(LED1-Pad1)")
    (add_net "Net-(LED1-Pad2)")
    (add_net "Net-(Q1-Pad1)")
    (add_net "Net-(Q1-Pad3)")
    (add_net "Net-(U1-Pad27)")
    (add_net "Net-(U1-Pad28)")
    (add_net "Net-(U2-Pad4)")
    (add_net RAW)
    (add_net RESET)
    (add_net RXI)
    (add_net SCK)
    (add_net TXO)
    (add_net VCC)
  )

  (module Capacitors_SMD:C_0603 (layer F.Cu) (tedit 59958EE7) (tstamp 5E03A095)
    (at 245.4 38.25 90)
    (descr "Capacitor SMD 0603, reflow soldering, AVX (see smccp.pdf)")
    (tags "capacitor 0603")
    (path /5E0358C4)
    (attr smd)
    (fp_text reference C1 (at 0 -1.5 90) (layer F.SilkS)
      (effects (font (size 1 1) (thickness 0.15)))
    )
    (fp_text value 0.1uF (at 0 1.5 90) (layer F.Fab)
      (effects (font (size 1 1) (thickness 0.15)))
    )
    (fp_line (start 1.4 0.65) (end -1.4 0.65) (layer F.CrtYd) (width 0.05))
    (fp_line (start 1.4 0.65) (end 1.4 -0.65) (layer F.CrtYd) (width 0.05))
    (fp_line (start -1.4 -0.65) (end -1.4 0.65) (layer F.CrtYd) (width 0.05))
    (fp_line (start -1.4 -0.65) (end 1.4 -0.65) (layer F.CrtYd) (width 0.05))
    (fp_line (start 0.35 0.6) (end -0.35 0.6) (layer F.SilkS) (width 0.12))
    (fp_line (start -0.35 -0.6) (end 0.35 -0.6) (layer F.SilkS) (width 0.12))
    (fp_line (start -0.8 -0.4) (end 0.8 -0.4) (layer F.Fab) (width 0.1))
    (fp_line (start 0.8 -0.4) (end 0.8 0.4) (layer F.Fab) (width 0.1))
    (fp_line (start 0.8 0.4) (end -0.8 0.4) (layer F.Fab) (width 0.1))
    (fp_line (start -0.8 0.4) (end -0.8 -0.4) (layer F.Fab) (width 0.1))
    (fp_text user %R (at 0 0 90) (layer F.Fab)
      (effects (font (size 0.3 0.3) (thickness 0.075)))
    )
    (pad 2 smd rect (at 0.75 0 90) (size 0.8 0.75) (layers F.Cu F.Paste F.Mask)
      (net 1 GND))
    (pad 1 smd rect (at -0.75 0 90) (size 0.8 0.75) (layers F.Cu F.Paste F.Mask)
      (net 2 "Net-(C1-Pad1)"))
    (model Capacitors_SMD.3dshapes/C_0603.wrl
      (at (xyz 0 0 0))
      (scale (xyz 1 1 1))
      (rotate (xyz 0 0 0))
    )
  )

  (module Package_TO_SOT_SMD:SOT-23-5 (layer F.Cu) (tedit 5A02FF57) (tstamp 5E03A13C)
    (at 243.5 31.6 180)
    (descr "5-pin SOT23 package")
    (tags SOT-23-5)
    (path /5E038816)
    (attr smd)
    (fp_text reference U2 (at 0 -2.9) (layer F.SilkS)
      (effects (font (size 1 1) (thickness 0.15)))
    )
    (fp_text value MIC5205-5.0YM5 (at 0 2.9) (layer F.Fab)
      (effects (font (size 1 1) (thickness 0.15)))
    )
    (fp_line (start 0.9 -1.55) (end 0.9 1.55) (layer F.Fab) (width 0.1))
    (fp_line (start 0.9 1.55) (end -0.9 1.55) (layer F.Fab) (width 0.1))
    (fp_line (start -0.9 -0.9) (end -0.9 1.55) (layer F.Fab) (width 0.1))
    (fp_line (start 0.9 -1.55) (end -0.25 -1.55) (layer F.Fab) (width 0.1))
    (fp_line (start -0.9 -0.9) (end -0.25 -1.55) (layer F.Fab) (width 0.1))
    (fp_line (start -1.9 1.8) (end -1.9 -1.8) (layer F.CrtYd) (width 0.05))
    (fp_line (start 1.9 1.8) (end -1.9 1.8) (layer F.CrtYd) (width 0.05))
    (fp_line (start 1.9 -1.8) (end 1.9 1.8) (layer F.CrtYd) (width 0.05))
    (fp_line (start -1.9 -1.8) (end 1.9 -1.8) (layer F.CrtYd) (width 0.05))
    (fp_line (start 0.9 -1.61) (end -1.55 -1.61) (layer F.SilkS) (width 0.12))
    (fp_line (start -0.9 1.61) (end 0.9 1.61) (layer F.SilkS) (width 0.12))
    (fp_text user %R (at 0 0 90) (layer F.Fab)
      (effects (font (size 0.5 0.5) (thickness 0.075)))
    )
    (pad 5 smd rect (at 1.1 -0.95 180) (size 1.06 0.65) (layers F.Cu F.Paste F.Mask)
      (net 30 "Net-(LED1-Pad2)"))
    (pad 4 smd rect (at 1.1 0.95 180) (size 1.06 0.65) (layers F.Cu F.Paste F.Mask)
      (net 36 "Net-(U2-Pad4)"))
    (pad 3 smd rect (at -1.1 0.95 180) (size 1.06 0.65) (layers F.Cu F.Paste F.Mask)
      (net 5 RAW))
    (pad 2 smd rect (at -1.1 0 180) (size 1.06 0.65) (layers F.Cu F.Paste F.Mask)
      (net 1 GND))
    (pad 1 smd rect (at -1.1 -0.95 180) (size 1.06 0.65) (layers F.Cu F.Paste F.Mask)
      (net 5 RAW))
    (model ${KISYS3DMOD}/Package_TO_SOT_SMD.3dshapes/SOT-23-5.wrl
      (at (xyz 0 0 0))
      (scale (xyz 1 1 1))
      (rotate (xyz 0 0 0))
    )
  )

  (module Package_QFP:TQFP-32_7x7mm_P0.8mm (layer F.Cu) (tedit 5A02F146) (tstamp 5E03A416)
    (at 238 38.2)
    (descr "32-Lead Plastic Thin Quad Flatpack (PT) - 7x7x1.0 mm Body, 2.00 mm [TQFP] (see Microchip Packaging Specification 00000049BS.pdf)")
    (tags "QFP 0.8")
    (path /5E0126F6)
    (attr smd)
    (fp_text reference U1 (at 0 -6.05) (layer F.SilkS)
      (effects (font (size 1 1) (thickness 0.15)))
    )
    (fp_text value ATmega328P-AU (at 0 6.05) (layer F.Fab)
      (effects (font (size 1 1) (thickness 0.15)))
    )
    (fp_line (start -3.625 -3.4) (end -5.05 -3.4) (layer F.SilkS) (width 0.15))
    (fp_line (start 3.625 -3.625) (end 3.3 -3.625) (layer F.SilkS) (width 0.15))
    (fp_line (start 3.625 3.625) (end 3.3 3.625) (layer F.SilkS) (width 0.15))
    (fp_line (start -3.625 3.625) (end -3.3 3.625) (layer F.SilkS) (width 0.15))
    (fp_line (start -3.625 -3.625) (end -3.3 -3.625) (layer F.SilkS) (width 0.15))
    (fp_line (start -3.625 3.625) (end -3.625 3.3) (layer F.SilkS) (width 0.15))
    (fp_line (start 3.625 3.625) (end 3.625 3.3) (layer F.SilkS) (width 0.15))
    (fp_line (start 3.625 -3.625) (end 3.625 -3.3) (layer F.SilkS) (width 0.15))
    (fp_line (start -3.625 -3.625) (end -3.625 -3.4) (layer F.SilkS) (width 0.15))
    (fp_line (start -5.3 5.3) (end 5.3 5.3) (layer F.CrtYd) (width 0.05))
    (fp_line (start -5.3 -5.3) (end 5.3 -5.3) (layer F.CrtYd) (width 0.05))
    (fp_line (start 5.3 -5.3) (end 5.3 5.3) (layer F.CrtYd) (width 0.05))
    (fp_line (start -5.3 -5.3) (end -5.3 5.3) (layer F.CrtYd) (width 0.05))
    (fp_line (start -3.5 -2.5) (end -2.5 -3.5) (layer F.Fab) (width 0.15))
    (fp_line (start -3.5 3.5) (end -3.5 -2.5) (layer F.Fab) (width 0.15))
    (fp_line (start 3.5 3.5) (end -3.5 3.5) (layer F.Fab) (width 0.15))
    (fp_line (start 3.5 -3.5) (end 3.5 3.5) (layer F.Fab) (width 0.15))
    (fp_line (start -2.5 -3.5) (end 3.5 -3.5) (layer F.Fab) (width 0.15))
    (fp_text user %R (at 0 0) (layer F.Fab)
      (effects (font (size 1 1) (thickness 0.15)))
    )
    (pad 32 smd rect (at -2.8 -4.25 90) (size 1.6 0.55) (layers F.Cu F.Paste F.Mask)
      (net 14 D2))
    (pad 31 smd rect (at -2 -4.25 90) (size 1.6 0.55) (layers F.Cu F.Paste F.Mask)
      (net 9 TXO))
    (pad 30 smd rect (at -1.2 -4.25 90) (size 1.6 0.55) (layers F.Cu F.Paste F.Mask)
      (net 10 RXI))
    (pad 29 smd rect (at -0.4 -4.25 90) (size 1.6 0.55) (layers F.Cu F.Paste F.Mask)
      (net 15 RESET))
    (pad 28 smd rect (at 0.4 -4.25 90) (size 1.6 0.55) (layers F.Cu F.Paste F.Mask)
      (net 34 "Net-(U1-Pad28)"))
    (pad 27 smd rect (at 1.2 -4.25 90) (size 1.6 0.55) (layers F.Cu F.Paste F.Mask)
      (net 35 "Net-(U1-Pad27)"))
    (pad 26 smd rect (at 2 -4.25 90) (size 1.6 0.55) (layers F.Cu F.Paste F.Mask)
      (net 24 A3))
    (pad 25 smd rect (at 2.8 -4.25 90) (size 1.6 0.55) (layers F.Cu F.Paste F.Mask)
      (net 25 A2))
    (pad 24 smd rect (at 4.25 -2.8) (size 1.6 0.55) (layers F.Cu F.Paste F.Mask)
      (net 26 A1))
    (pad 23 smd rect (at 4.25 -2) (size 1.6 0.55) (layers F.Cu F.Paste F.Mask)
      (net 27 A0))
    (pad 22 smd rect (at 4.25 -1.2) (size 1.6 0.55) (layers F.Cu F.Paste F.Mask)
      (net 8 A7))
    (pad 21 smd rect (at 4.25 -0.4) (size 1.6 0.55) (layers F.Cu F.Paste F.Mask)
      (net 1 GND))
    (pad 20 smd rect (at 4.25 0.4) (size 1.6 0.55) (layers F.Cu F.Paste F.Mask)
      (net 2 "Net-(C1-Pad1)"))
    (pad 19 smd rect (at 4.25 1.2) (size 1.6 0.55) (layers F.Cu F.Paste F.Mask)
      (net 7 A6))
    (pad 18 smd rect (at 4.25 2) (size 1.6 0.55) (layers F.Cu F.Paste F.Mask)
      (net 4 VCC))
    (pad 17 smd rect (at 4.25 2.8) (size 1.6 0.55) (layers F.Cu F.Paste F.Mask)
      (net 16 SCK))
    (pad 16 smd rect (at 2.8 4.25 90) (size 1.6 0.55) (layers F.Cu F.Paste F.Mask)
      (net 17 MISO))
    (pad 15 smd rect (at 2 4.25 90) (size 1.6 0.55) (layers F.Cu F.Paste F.Mask)
      (net 18 MOSI))
    (pad 14 smd rect (at 1.2 4.25 90) (size 1.6 0.55) (layers F.Cu F.Paste F.Mask)
      (net 19 D10))
    (pad 13 smd rect (at 0.4 4.25 90) (size 1.6 0.55) (layers F.Cu F.Paste F.Mask)
      (net 20 D9))
    (pad 12 smd rect (at -0.4 4.25 90) (size 1.6 0.55) (layers F.Cu F.Paste F.Mask)
      (net 21 D8))
    (pad 11 smd rect (at -1.2 4.25 90) (size 1.6 0.55) (layers F.Cu F.Paste F.Mask)
      (net 22 D7))
    (pad 10 smd rect (at -2 4.25 90) (size 1.6 0.55) (layers F.Cu F.Paste F.Mask)
      (net 23 D6))
    (pad 9 smd rect (at -2.8 4.25 90) (size 1.6 0.55) (layers F.Cu F.Paste F.Mask)
      (net 11 D5))
    (pad 8 smd rect (at -4.25 2.8) (size 1.6 0.55) (layers F.Cu F.Paste F.Mask)
      (net 33 "Net-(Q1-Pad1)"))
    (pad 7 smd rect (at -4.25 2) (size 1.6 0.55) (layers F.Cu F.Paste F.Mask)
      (net 32 "Net-(Q1-Pad3)"))
    (pad 6 smd rect (at -4.25 1.2) (size 1.6 0.55) (layers F.Cu F.Paste F.Mask)
      (net 4 VCC))
    (pad 5 smd rect (at -4.25 0.4) (size 1.6 0.55) (layers F.Cu F.Paste F.Mask)
      (net 1 GND))
    (pad 4 smd rect (at -4.25 -0.4) (size 1.6 0.55) (layers F.Cu F.Paste F.Mask)
      (net 4 VCC))
    (pad 3 smd rect (at -4.25 -1.2) (size 1.6 0.55) (layers F.Cu F.Paste F.Mask)
      (net 1 GND))
    (pad 2 smd rect (at -4.25 -2) (size 1.6 0.55) (layers F.Cu F.Paste F.Mask)
      (net 12 D4))
    (pad 1 smd rect (at -4.25 -2.8) (size 1.6 0.55) (layers F.Cu F.Paste F.Mask)
      (net 13 D3))
    (model ${KISYS3DMOD}/Package_QFP.3dshapes/TQFP-32_7x7mm_P0.8mm.wrl
      (at (xyz 0 0 0))
      (scale (xyz 1 1 1))
      (rotate (xyz 0 0 0))
    )
  )

  (module Jumper:SolderJumper-2_P1.3mm_Open_RoundedPad1.0x1.5mm (layer F.Cu) (tedit 5B391E66) (tstamp 5E03A0F0)
    (at 244 34.1)
    (descr "SMD Solder Jumper, 1x1.5mm, rounded Pads, 0.3mm gap, open")
    (tags "solder jumper open")
    (path /5E04EC99)
    (attr virtual)
    (fp_text reference SJ1 (at 0 -1.8) (layer F.SilkS)
      (effects (font (size 1 1) (thickness 0.15)))
    )
    (fp_text value SolderJumper_2_Bridged (at 16 -0.4) (layer F.Fab)
      (effects (font (size 1 1) (thickness 0.15)))
    )
    (fp_line (start 1.65 1.25) (end -1.65 1.25) (layer F.CrtYd) (width 0.05))
    (fp_line (start 1.65 1.25) (end 1.65 -1.25) (layer F.CrtYd) (width 0.05))
    (fp_line (start -1.65 -1.25) (end -1.65 1.25) (layer F.CrtYd) (width 0.05))
    (fp_line (start -1.65 -1.25) (end 1.65 -1.25) (layer F.CrtYd) (width 0.05))
    (fp_line (start -0.7 -1) (end 0.7 -1) (layer F.SilkS) (width 0.12))
    (fp_line (start 1.4 -0.3) (end 1.4 0.3) (layer F.SilkS) (width 0.12))
    (fp_line (start 0.7 1) (end -0.7 1) (layer F.SilkS) (width 0.12))
    (fp_line (start -1.4 0.3) (end -1.4 -0.3) (layer F.SilkS) (width 0.12))
    (fp_arc (start -0.7 -0.3) (end -0.7 -1) (angle -90) (layer F.SilkS) (width 0.12))
    (fp_arc (start -0.7 0.3) (end -1.4 0.3) (angle -90) (layer F.SilkS) (width 0.12))
    (fp_arc (start 0.7 0.3) (end 0.7 1) (angle -90) (layer F.SilkS) (width 0.12))
    (fp_arc (start 0.7 -0.3) (end 1.4 -0.3) (angle -90) (layer F.SilkS) (width 0.12))
    (pad 2 smd custom (at 0.65 0) (size 1 0.5) (layers F.Cu F.Mask)
      (net 4 VCC) (zone_connect 2)
      (options (clearance outline) (anchor rect))
      (primitives
        (gr_circle (center 0 0.25) (end 0.5 0.25) (width 0))
        (gr_circle (center 0 -0.25) (end 0.5 -0.25) (width 0))
        (gr_poly (pts
           (xy 0 -0.75) (xy -0.5 -0.75) (xy -0.5 0.75) (xy 0 0.75)) (width 0))
      ))
    (pad 1 smd custom (at -0.65 0) (size 1 0.5) (layers F.Cu F.Mask)
      (net 30 "Net-(LED1-Pad2)") (zone_connect 2)
      (options (clearance outline) (anchor rect))
      (primitives
        (gr_circle (center 0 0.25) (end 0.5 0.25) (width 0))
        (gr_circle (center 0 -0.25) (end 0.5 -0.25) (width 0))
        (gr_poly (pts
           (xy 0 -0.75) (xy 0.5 -0.75) (xy 0.5 0.75) (xy 0 0.75)) (width 0))
      ))
  )

  (module Resistors_SMD:R_0603 (layer F.Cu) (tedit 58E0A804) (tstamp 5E03A0DB)
    (at 231.3 30.1 90)
    (descr "Resistor SMD 0603, reflow soldering, Vishay (see dcrcw.pdf)")
    (tags "resistor 0603")
    (path /5E04ACC9)
    (attr smd)
    (fp_text reference R11 (at 0 -1.45 90) (layer F.SilkS)
      (effects (font (size 1 1) (thickness 0.15)))
    )
    (fp_text value 10K (at 0 1.5 90) (layer F.Fab)
      (effects (font (size 1 1) (thickness 0.15)))
    )
    (fp_text user %R (at 0 0 90) (layer F.Fab)
      (effects (font (size 0.4 0.4) (thickness 0.075)))
    )
    (fp_line (start -0.8 0.4) (end -0.8 -0.4) (layer F.Fab) (width 0.1))
    (fp_line (start 0.8 0.4) (end -0.8 0.4) (layer F.Fab) (width 0.1))
    (fp_line (start 0.8 -0.4) (end 0.8 0.4) (layer F.Fab) (width 0.1))
    (fp_line (start -0.8 -0.4) (end 0.8 -0.4) (layer F.Fab) (width 0.1))
    (fp_line (start 0.5 0.68) (end -0.5 0.68) (layer F.SilkS) (width 0.12))
    (fp_line (start -0.5 -0.68) (end 0.5 -0.68) (layer F.SilkS) (width 0.12))
    (fp_line (start -1.25 -0.7) (end 1.25 -0.7) (layer F.CrtYd) (width 0.05))
    (fp_line (start -1.25 -0.7) (end -1.25 0.7) (layer F.CrtYd) (width 0.05))
    (fp_line (start 1.25 0.7) (end 1.25 -0.7) (layer F.CrtYd) (width 0.05))
    (fp_line (start 1.25 0.7) (end -1.25 0.7) (layer F.CrtYd) (width 0.05))
    (pad 1 smd rect (at -0.75 0 90) (size 0.5 0.9) (layers F.Cu F.Paste F.Mask)
      (net 31 "Net-(LED1-Pad1)"))
    (pad 2 smd rect (at 0.75 0 90) (size 0.5 0.9) (layers F.Cu F.Paste F.Mask)
      (net 1 GND))
    (model ${KISYS3DMOD}/Resistors_SMD.3dshapes/R_0603.wrl
      (at (xyz 0 0 0))
      (scale (xyz 1 1 1))
      (rotate (xyz 0 0 0))
    )
  )

  (module Resistors_SMD:R_0603 (layer F.Cu) (tedit 58E0A804) (tstamp 5E03A0D8)
    (at 245.85 46.4)
    (descr "Resistor SMD 0603, reflow soldering, Vishay (see dcrcw.pdf)")
    (tags "resistor 0603")
    (path /5E0233EA)
    (attr smd)
    (fp_text reference R6 (at 0 -1.45) (layer F.SilkS)
      (effects (font (size 1 1) (thickness 0.15)))
    )
    (fp_text value 330 (at 0 1.5) (layer F.Fab)
      (effects (font (size 1 1) (thickness 0.15)))
    )
    (fp_text user %R (at 0 0) (layer F.Fab)
      (effects (font (size 0.4 0.4) (thickness 0.075)))
    )
    (fp_line (start -0.8 0.4) (end -0.8 -0.4) (layer F.Fab) (width 0.1))
    (fp_line (start 0.8 0.4) (end -0.8 0.4) (layer F.Fab) (width 0.1))
    (fp_line (start 0.8 -0.4) (end 0.8 0.4) (layer F.Fab) (width 0.1))
    (fp_line (start -0.8 -0.4) (end 0.8 -0.4) (layer F.Fab) (width 0.1))
    (fp_line (start 0.5 0.68) (end -0.5 0.68) (layer F.SilkS) (width 0.12))
    (fp_line (start -0.5 -0.68) (end 0.5 -0.68) (layer F.SilkS) (width 0.12))
    (fp_line (start -1.25 -0.7) (end 1.25 -0.7) (layer F.CrtYd) (width 0.05))
    (fp_line (start -1.25 -0.7) (end -1.25 0.7) (layer F.CrtYd) (width 0.05))
    (fp_line (start 1.25 0.7) (end 1.25 -0.7) (layer F.CrtYd) (width 0.05))
    (fp_line (start 1.25 0.7) (end -1.25 0.7) (layer F.CrtYd) (width 0.05))
    (pad 1 smd rect (at -0.75 0) (size 0.5 0.9) (layers F.Cu F.Paste F.Mask)
      (net 6 "Net-(D3-Pad2)"))
    (pad 2 smd rect (at 0.75 0) (size 0.5 0.9) (layers F.Cu F.Paste F.Mask)
      (net 16 SCK))
    (model ${KISYS3DMOD}/Resistors_SMD.3dshapes/R_0603.wrl
      (at (xyz 0 0 0))
      (scale (xyz 1 1 1))
      (rotate (xyz 0 0 0))
    )
  )

  (module Resistors_SMD:R_0603 (layer F.Cu) (tedit 58E0A804) (tstamp 5E03A0D5)
    (at 233.2 30.1)
    (descr "Resistor SMD 0603, reflow soldering, Vishay (see dcrcw.pdf)")
    (tags "resistor 0603")
    (path /5E027951)
    (attr smd)
    (fp_text reference R2 (at 0 -1.45) (layer F.SilkS)
      (effects (font (size 1 1) (thickness 0.15)))
    )
    (fp_text value 10K (at 0 1.5) (layer F.Fab)
      (effects (font (size 1 1) (thickness 0.15)))
    )
    (fp_text user %R (at 0 0) (layer F.Fab)
      (effects (font (size 0.4 0.4) (thickness 0.075)))
    )
    (fp_line (start -0.8 0.4) (end -0.8 -0.4) (layer F.Fab) (width 0.1))
    (fp_line (start 0.8 0.4) (end -0.8 0.4) (layer F.Fab) (width 0.1))
    (fp_line (start 0.8 -0.4) (end 0.8 0.4) (layer F.Fab) (width 0.1))
    (fp_line (start -0.8 -0.4) (end 0.8 -0.4) (layer F.Fab) (width 0.1))
    (fp_line (start 0.5 0.68) (end -0.5 0.68) (layer F.SilkS) (width 0.12))
    (fp_line (start -0.5 -0.68) (end 0.5 -0.68) (layer F.SilkS) (width 0.12))
    (fp_line (start -1.25 -0.7) (end 1.25 -0.7) (layer F.CrtYd) (width 0.05))
    (fp_line (start -1.25 -0.7) (end -1.25 0.7) (layer F.CrtYd) (width 0.05))
    (fp_line (start 1.25 0.7) (end 1.25 -0.7) (layer F.CrtYd) (width 0.05))
    (fp_line (start 1.25 0.7) (end -1.25 0.7) (layer F.CrtYd) (width 0.05))
    (pad 1 smd rect (at -0.75 0) (size 0.5 0.9) (layers F.Cu F.Paste F.Mask)
      (net 4 VCC))
    (pad 2 smd rect (at 0.75 0) (size 0.5 0.9) (layers F.Cu F.Paste F.Mask)
      (net 15 RESET))
    (model ${KISYS3DMOD}/Resistors_SMD.3dshapes/R_0603.wrl
      (at (xyz 0 0 0))
      (scale (xyz 1 1 1))
      (rotate (xyz 0 0 0))
    )
  )

  (module Crystal:Resonator_SMD_muRata_CSTxExxV-3Pin_3.0x1.1mm (layer F.Cu) (tedit 5AD358ED) (tstamp 5E03A0D2)
    (at 231.8 41.5 90)
    (descr "SMD Resomator/Filter Murata CSTCE, https://www.murata.com/en-eu/products/productdata/8801162264606/SPEC-CSTNE16M0VH3C000R0.pdf")
    (tags "SMD SMT ceramic resonator filter")
    (path /5E01BE48)
    (attr smd)
    (fp_text reference Q1 (at 0 -2 90) (layer F.SilkS)
      (effects (font (size 1 1) (thickness 0.15)))
    )
    (fp_text value 16MHz (at 0 1.8 90) (layer F.Fab)
      (effects (font (size 0.2 0.2) (thickness 0.03)))
    )
    (fp_line (start -1.75 1.2) (end -1.75 -1.2) (layer F.CrtYd) (width 0.05))
    (fp_line (start 1.75 -1.2) (end 1.75 1.2) (layer F.CrtYd) (width 0.05))
    (fp_line (start -1.75 -1.2) (end 1.75 -1.2) (layer F.CrtYd) (width 0.05))
    (fp_line (start 1.75 1.2) (end -1.75 1.2) (layer F.CrtYd) (width 0.05))
    (fp_line (start -1.5 0.3) (end -1.5 -0.8) (layer F.Fab) (width 0.1))
    (fp_line (start -1 0.8) (end 1.5 0.8) (layer F.Fab) (width 0.1))
    (fp_line (start -1 0.8) (end -1.5 0.3) (layer F.Fab) (width 0.1))
    (fp_line (start 1.5 -0.8) (end -1.5 -0.8) (layer F.Fab) (width 0.1))
    (fp_line (start 1.5 0.8) (end 1.5 -0.8) (layer F.Fab) (width 0.1))
    (fp_line (start -2 0.8) (end -2 1.2) (layer F.SilkS) (width 0.12))
    (fp_line (start -1.8 0.8) (end -1.8 1.2) (layer F.SilkS) (width 0.12))
    (fp_line (start 1.8 0.8) (end 1.8 1.2) (layer F.SilkS) (width 0.12))
    (fp_line (start -2 -1.2) (end -2 0.8) (layer F.SilkS) (width 0.12))
    (fp_line (start -0.8 1.2) (end -0.8 1.6) (layer F.SilkS) (width 0.12))
    (fp_line (start -0.8 1.2) (end -1.8 1.2) (layer F.SilkS) (width 0.12))
    (fp_line (start -1.8 0.8) (end -1.8 -1.2) (layer F.SilkS) (width 0.12))
    (fp_line (start -1.8 -1.2) (end -0.8 -1.2) (layer F.SilkS) (width 0.12))
    (fp_line (start 1 -1.2) (end 1.8 -1.2) (layer F.SilkS) (width 0.12))
    (fp_line (start 1.8 -1.2) (end 1.8 0.8) (layer F.SilkS) (width 0.12))
    (fp_line (start 1.8 1.2) (end 1 1.2) (layer F.SilkS) (width 0.12))
    (fp_text user %R (at 0.1 -0.05 90) (layer F.Fab)
      (effects (font (size 0.6 0.6) (thickness 0.08)))
    )
    (pad 3 smd rect (at 1.2 0 90) (size 0.4 1.9) (layers F.Cu F.Paste F.Mask)
      (net 32 "Net-(Q1-Pad3)"))
    (pad 2 smd rect (at 0 0 90) (size 0.4 1.9) (layers F.Cu F.Paste F.Mask)
      (net 1 GND))
    (pad 1 smd rect (at -1.2 0 90) (size 0.4 1.9) (layers F.Cu F.Paste F.Mask)
      (net 33 "Net-(Q1-Pad1)"))
    (model ${KISYS3DMOD}/Crystal.3dshapes/Resonator_SMD_muRata_CSTxExxV-3Pin_3.0x1.1mm.wrl
      (at (xyz 0 0 0))
      (scale (xyz 1 1 1))
      (rotate (xyz 0 0 0))
    )
  )

  (module LEDs:LED_0603 (layer F.Cu) (tedit 57FE93A5) (tstamp 5E03A0B6)
    (at 233.2 31.7)
    (descr "LED 0603 smd package")
    (tags "LED led 0603 SMD smd SMT smt smdled SMDLED smtled SMTLED")
    (path /5E04957E)
    (attr smd)
    (fp_text reference LED1 (at 0 -1.25) (layer F.SilkS)
      (effects (font (size 1 1) (thickness 0.15)))
    )
    (fp_text value Red (at 0 1.35) (layer F.Fab)
      (effects (font (size 1 1) (thickness 0.15)))
    )
    (fp_line (start -1.3 -0.5) (end -1.3 0.5) (layer F.SilkS) (width 0.12))
    (fp_line (start -0.2 -0.2) (end -0.2 0.2) (layer F.Fab) (width 0.1))
    (fp_line (start -0.15 0) (end 0.15 -0.2) (layer F.Fab) (width 0.1))
    (fp_line (start 0.15 0.2) (end -0.15 0) (layer F.Fab) (width 0.1))
    (fp_line (start 0.15 -0.2) (end 0.15 0.2) (layer F.Fab) (width 0.1))
    (fp_line (start 0.8 0.4) (end -0.8 0.4) (layer F.Fab) (width 0.1))
    (fp_line (start 0.8 -0.4) (end 0.8 0.4) (layer F.Fab) (width 0.1))
    (fp_line (start -0.8 -0.4) (end 0.8 -0.4) (layer F.Fab) (width 0.1))
    (fp_line (start -0.8 0.4) (end -0.8 -0.4) (layer F.Fab) (width 0.1))
    (fp_line (start -1.3 0.5) (end 0.8 0.5) (layer F.SilkS) (width 0.12))
    (fp_line (start -1.3 -0.5) (end 0.8 -0.5) (layer F.SilkS) (width 0.12))
    (fp_line (start 1.45 -0.65) (end 1.45 0.65) (layer F.CrtYd) (width 0.05))
    (fp_line (start 1.45 0.65) (end -1.45 0.65) (layer F.CrtYd) (width 0.05))
    (fp_line (start -1.45 0.65) (end -1.45 -0.65) (layer F.CrtYd) (width 0.05))
    (fp_line (start -1.45 -0.65) (end 1.45 -0.65) (layer F.CrtYd) (width 0.05))
    (pad 2 smd rect (at 0.8 0 180) (size 0.8 0.8) (layers F.Cu F.Paste F.Mask)
      (net 30 "Net-(LED1-Pad2)"))
    (pad 1 smd rect (at -0.8 0 180) (size 0.8 0.8) (layers F.Cu F.Paste F.Mask)
      (net 31 "Net-(LED1-Pad1)"))
    (model ${KISYS3DMOD}/LEDs.3dshapes/LED_0603.wrl
      (at (xyz 0 0 0))
      (scale (xyz 1 1 1))
      (rotate (xyz 0 0 180))
    )
  )

  (module Pin_Headers:Pin_Header_Straight_1x02_Pitch2.54mm (layer F.Cu) (tedit 59650532) (tstamp 5E03A0B3)
    (at 271 45.9)
    (descr "Through hole straight pin header, 1x02, 2.54mm pitch, single row")
    (tags "Through hole pin header THT 1x02 2.54mm single row")
    (path /5E0695C1)
    (fp_text reference JP2 (at 0 -2.33) (layer F.SilkS)
      (effects (font (size 1 1) (thickness 0.15)))
    )
    (fp_text value Conn_01x02_MountingPin (at 0 4.87) (layer F.Fab)
      (effects (font (size 1 1) (thickness 0.15)))
    )
    (fp_line (start -0.635 -1.27) (end 1.27 -1.27) (layer F.Fab) (width 0.1))
    (fp_line (start 1.27 -1.27) (end 1.27 3.81) (layer F.Fab) (width 0.1))
    (fp_line (start 1.27 3.81) (end -1.27 3.81) (layer F.Fab) (width 0.1))
    (fp_line (start -1.27 3.81) (end -1.27 -0.635) (layer F.Fab) (width 0.1))
    (fp_line (start -1.27 -0.635) (end -0.635 -1.27) (layer F.Fab) (width 0.1))
    (fp_line (start -1.33 3.87) (end 1.33 3.87) (layer F.SilkS) (width 0.12))
    (fp_line (start -1.33 1.27) (end -1.33 3.87) (layer F.SilkS) (width 0.12))
    (fp_line (start 1.33 1.27) (end 1.33 3.87) (layer F.SilkS) (width 0.12))
    (fp_line (start -1.33 1.27) (end 1.33 1.27) (layer F.SilkS) (width 0.12))
    (fp_line (start -1.33 0) (end -1.33 -1.33) (layer F.SilkS) (width 0.12))
    (fp_line (start -1.33 -1.33) (end 0 -1.33) (layer F.SilkS) (width 0.12))
    (fp_line (start -1.8 -1.8) (end -1.8 4.35) (layer F.CrtYd) (width 0.05))
    (fp_line (start -1.8 4.35) (end 1.8 4.35) (layer F.CrtYd) (width 0.05))
    (fp_line (start 1.8 4.35) (end 1.8 -1.8) (layer F.CrtYd) (width 0.05))
    (fp_line (start 1.8 -1.8) (end -1.8 -1.8) (layer F.CrtYd) (width 0.05))
    (fp_text user %R (at 0 1.27 90) (layer F.Fab)
      (effects (font (size 1 1) (thickness 0.15)))
    )
    (pad 1 thru_hole rect (at 0 0) (size 1.7 1.7) (drill 1) (layers *.Cu *.Mask)
      (net 28 "Net-(JP2-Pad1)"))
    (pad 2 thru_hole oval (at 0 2.54) (size 1.7 1.7) (drill 1) (layers *.Cu *.Mask)
      (net 29 "Net-(JP2-Pad2)"))
    (model ${KISYS3DMOD}/Pin_Headers.3dshapes/Pin_Header_Straight_1x02_Pitch2.54mm.wrl
      (at (xyz 0 0 0))
      (scale (xyz 1 1 1))
      (rotate (xyz 0 0 0))
    )
  )

  (module Pin_Headers:Pin_Header_Straight_1x08_Pitch2.54mm (layer F.Cu) (tedit 59650532) (tstamp 5E03A0B0)
    (at 248.3 28.2)
    (descr "Through hole straight pin header, 1x08, 2.54mm pitch, single row")
    (tags "Through hole pin header THT 1x08 2.54mm single row")
    (path /5E08F00C)
    (fp_text reference J4 (at 0 -2.33) (layer F.SilkS)
      (effects (font (size 1 1) (thickness 0.15)))
    )
    (fp_text value Conn_01x08_MountingPin (at 12 3.1) (layer F.Fab)
      (effects (font (size 1 1) (thickness 0.15)))
    )
    (fp_line (start -0.635 -1.27) (end 1.27 -1.27) (layer F.Fab) (width 0.1))
    (fp_line (start 1.27 -1.27) (end 1.27 19.05) (layer F.Fab) (width 0.1))
    (fp_line (start 1.27 19.05) (end -1.27 19.05) (layer F.Fab) (width 0.1))
    (fp_line (start -1.27 19.05) (end -1.27 -0.635) (layer F.Fab) (width 0.1))
    (fp_line (start -1.27 -0.635) (end -0.635 -1.27) (layer F.Fab) (width 0.1))
    (fp_line (start -1.33 19.11) (end 1.33 19.11) (layer F.SilkS) (width 0.12))
    (fp_line (start -1.33 1.27) (end -1.33 19.11) (layer F.SilkS) (width 0.12))
    (fp_line (start 1.33 1.27) (end 1.33 19.11) (layer F.SilkS) (width 0.12))
    (fp_line (start -1.33 1.27) (end 1.33 1.27) (layer F.SilkS) (width 0.12))
    (fp_line (start -1.33 0) (end -1.33 -1.33) (layer F.SilkS) (width 0.12))
    (fp_line (start -1.33 -1.33) (end 0 -1.33) (layer F.SilkS) (width 0.12))
    (fp_line (start -1.8 -1.8) (end -1.8 19.55) (layer F.CrtYd) (width 0.05))
    (fp_line (start -1.8 19.55) (end 1.8 19.55) (layer F.CrtYd) (width 0.05))
    (fp_line (start 1.8 19.55) (end 1.8 -1.8) (layer F.CrtYd) (width 0.05))
    (fp_line (start 1.8 -1.8) (end -1.8 -1.8) (layer F.CrtYd) (width 0.05))
    (fp_text user %R (at 0 8.89 90) (layer F.Fab)
      (effects (font (size 1 1) (thickness 0.15)))
    )
    (pad 1 thru_hole rect (at 0 0) (size 1.7 1.7) (drill 1) (layers *.Cu *.Mask)
      (net 5 RAW))
    (pad 2 thru_hole oval (at 0 2.54) (size 1.7 1.7) (drill 1) (layers *.Cu *.Mask)
      (net 1 GND))
    (pad 3 thru_hole oval (at 0 5.08) (size 1.7 1.7) (drill 1) (layers *.Cu *.Mask)
      (net 15 RESET))
    (pad 4 thru_hole oval (at 0 7.62) (size 1.7 1.7) (drill 1) (layers *.Cu *.Mask)
      (net 4 VCC))
    (pad 5 thru_hole oval (at 0 10.16) (size 1.7 1.7) (drill 1) (layers *.Cu *.Mask)
      (net 24 A3))
    (pad 6 thru_hole oval (at 0 12.7) (size 1.7 1.7) (drill 1) (layers *.Cu *.Mask)
      (net 25 A2))
    (pad 7 thru_hole oval (at 0 15.24) (size 1.7 1.7) (drill 1) (layers *.Cu *.Mask)
      (net 26 A1))
    (pad 8 thru_hole oval (at 0 17.78) (size 1.7 1.7) (drill 1) (layers *.Cu *.Mask)
      (net 27 A0))
    (model ${KISYS3DMOD}/Pin_Headers.3dshapes/Pin_Header_Straight_1x08_Pitch2.54mm.wrl
      (at (xyz 0 0 0))
      (scale (xyz 1 1 1))
      (rotate (xyz 0 0 0))
    )
  )

  (module Pin_Headers:Pin_Header_Straight_1x08_Pitch2.54mm (layer F.Cu) (tedit 59650532) (tstamp 5E03A0AD)
    (at 248.3 48.4 270)
    (descr "Through hole straight pin header, 1x08, 2.54mm pitch, single row")
    (tags "Through hole pin header THT 1x08 2.54mm single row")
    (path /5E06C503)
    (fp_text reference J3 (at 0 -2.33 90) (layer F.SilkS)
      (effects (font (size 1 1) (thickness 0.15)))
    )
    (fp_text value Conn_01x08_MountingPin (at -3.7 -3.5 90) (layer F.Fab)
      (effects (font (size 1 1) (thickness 0.15)))
    )
    (fp_line (start -0.635 -1.27) (end 1.27 -1.27) (layer F.Fab) (width 0.1))
    (fp_line (start 1.27 -1.27) (end 1.27 19.05) (layer F.Fab) (width 0.1))
    (fp_line (start 1.27 19.05) (end -1.27 19.05) (layer F.Fab) (width 0.1))
    (fp_line (start -1.27 19.05) (end -1.27 -0.635) (layer F.Fab) (width 0.1))
    (fp_line (start -1.27 -0.635) (end -0.635 -1.27) (layer F.Fab) (width 0.1))
    (fp_line (start -1.33 19.11) (end 1.33 19.11) (layer F.SilkS) (width 0.12))
    (fp_line (start -1.33 1.27) (end -1.33 19.11) (layer F.SilkS) (width 0.12))
    (fp_line (start 1.33 1.27) (end 1.33 19.11) (layer F.SilkS) (width 0.12))
    (fp_line (start -1.33 1.27) (end 1.33 1.27) (layer F.SilkS) (width 0.12))
    (fp_line (start -1.33 0) (end -1.33 -1.33) (layer F.SilkS) (width 0.12))
    (fp_line (start -1.33 -1.33) (end 0 -1.33) (layer F.SilkS) (width 0.12))
    (fp_line (start -1.8 -1.8) (end -1.8 19.55) (layer F.CrtYd) (width 0.05))
    (fp_line (start -1.8 19.55) (end 1.8 19.55) (layer F.CrtYd) (width 0.05))
    (fp_line (start 1.8 19.55) (end 1.8 -1.8) (layer F.CrtYd) (width 0.05))
    (fp_line (start 1.8 -1.8) (end -1.8 -1.8) (layer F.CrtYd) (width 0.05))
    (fp_text user %R (at 1.7 -0.2) (layer F.Fab)
      (effects (font (size 1 1) (thickness 0.15)))
    )
    (pad 1 thru_hole rect (at 0 0 270) (size 1.7 1.7) (drill 1) (layers *.Cu *.Mask)
      (net 16 SCK))
    (pad 2 thru_hole oval (at 0 2.54 270) (size 1.7 1.7) (drill 1) (layers *.Cu *.Mask)
      (net 17 MISO))
    (pad 3 thru_hole oval (at 0 5.08 270) (size 1.7 1.7) (drill 1) (layers *.Cu *.Mask)
      (net 18 MOSI))
    (pad 4 thru_hole oval (at 0 7.62 270) (size 1.7 1.7) (drill 1) (layers *.Cu *.Mask)
      (net 19 D10))
    (pad 5 thru_hole oval (at 0 10.16 270) (size 1.7 1.7) (drill 1) (layers *.Cu *.Mask)
      (net 20 D9))
    (pad 6 thru_hole oval (at 0 12.7 270) (size 1.7 1.7) (drill 1) (layers *.Cu *.Mask)
      (net 21 D8))
    (pad 7 thru_hole oval (at 0 15.24 270) (size 1.7 1.7) (drill 1) (layers *.Cu *.Mask)
      (net 22 D7))
    (pad 8 thru_hole oval (at 0 17.78 270) (size 1.7 1.7) (drill 1) (layers *.Cu *.Mask)
      (net 23 D6))
    (model ${KISYS3DMOD}/Pin_Headers.3dshapes/Pin_Header_Straight_1x08_Pitch2.54mm.wrl
      (at (xyz 0 0 0))
      (scale (xyz 1 1 1))
      (rotate (xyz 0 0 0))
    )
  )

  (module Pin_Headers:Pin_Header_Straight_1x08_Pitch2.54mm (layer F.Cu) (tedit 59650532) (tstamp 5E03A0AA)
    (at 228 48.34 180)
    (descr "Through hole straight pin header, 1x08, 2.54mm pitch, single row")
    (tags "Through hole pin header THT 1x08 2.54mm single row")
    (path /5E06A20C)
    (fp_text reference J2 (at -2.1 1.84) (layer F.SilkS)
      (effects (font (size 1 1) (thickness 0.15)))
    )
    (fp_text value Conn_01x08_MountingPin (at 14 1.84) (layer F.Fab)
      (effects (font (size 1 1) (thickness 0.15)))
    )
    (fp_line (start -0.635 -1.27) (end 1.27 -1.27) (layer F.Fab) (width 0.1))
    (fp_line (start 1.27 -1.27) (end 1.27 19.05) (layer F.Fab) (width 0.1))
    (fp_line (start 1.27 19.05) (end -1.27 19.05) (layer F.Fab) (width 0.1))
    (fp_line (start -1.27 19.05) (end -1.27 -0.635) (layer F.Fab) (width 0.1))
    (fp_line (start -1.27 -0.635) (end -0.635 -1.27) (layer F.Fab) (width 0.1))
    (fp_line (start -1.33 19.11) (end 1.33 19.11) (layer F.SilkS) (width 0.12))
    (fp_line (start -1.33 1.27) (end -1.33 19.11) (layer F.SilkS) (width 0.12))
    (fp_line (start 1.33 1.27) (end 1.33 19.11) (layer F.SilkS) (width 0.12))
    (fp_line (start -1.33 1.27) (end 1.33 1.27) (layer F.SilkS) (width 0.12))
    (fp_line (start -1.33 0) (end -1.33 -1.33) (layer F.SilkS) (width 0.12))
    (fp_line (start -1.33 -1.33) (end 0 -1.33) (layer F.SilkS) (width 0.12))
    (fp_line (start -1.8 -1.8) (end -1.8 19.55) (layer F.CrtYd) (width 0.05))
    (fp_line (start -1.8 19.55) (end 1.8 19.55) (layer F.CrtYd) (width 0.05))
    (fp_line (start 1.8 19.55) (end 1.8 -1.8) (layer F.CrtYd) (width 0.05))
    (fp_line (start 1.8 -1.8) (end -1.8 -1.8) (layer F.CrtYd) (width 0.05))
    (fp_text user %R (at 0 8.89 90) (layer F.Fab)
      (effects (font (size 1 1) (thickness 0.15)))
    )
    (pad 1 thru_hole rect (at 0 0 180) (size 1.7 1.7) (drill 1) (layers *.Cu *.Mask)
      (net 11 D5))
    (pad 2 thru_hole oval (at 0 2.54 180) (size 1.7 1.7) (drill 1) (layers *.Cu *.Mask)
      (net 12 D4))
    (pad 3 thru_hole oval (at 0 5.08 180) (size 1.7 1.7) (drill 1) (layers *.Cu *.Mask)
      (net 13 D3))
    (pad 4 thru_hole oval (at 0 7.62 180) (size 1.7 1.7) (drill 1) (layers *.Cu *.Mask)
      (net 14 D2))
    (pad 5 thru_hole oval (at 0 10.16 180) (size 1.7 1.7) (drill 1) (layers *.Cu *.Mask)
      (net 1 GND))
    (pad 6 thru_hole oval (at 0 12.7 180) (size 1.7 1.7) (drill 1) (layers *.Cu *.Mask)
      (net 15 RESET))
    (pad 7 thru_hole oval (at 0 15.24 180) (size 1.7 1.7) (drill 1) (layers *.Cu *.Mask)
      (net 10 RXI))
    (pad 8 thru_hole oval (at 0 17.78 180) (size 1.7 1.7) (drill 1) (layers *.Cu *.Mask)
      (net 9 TXO))
    (model ${KISYS3DMOD}/Pin_Headers.3dshapes/Pin_Header_Straight_1x08_Pitch2.54mm.wrl
      (at (xyz 0 0 0))
      (scale (xyz 1 1 1))
      (rotate (xyz 0 0 0))
    )
  )

  (module Pin_Headers:Pin_Header_Straight_1x08_Pitch2.54mm (layer F.Cu) (tedit 59650532) (tstamp 5E03A0A7)
    (at 245.84 28.2 270)
    (descr "Through hole straight pin header, 1x08, 2.54mm pitch, single row")
    (tags "Through hole pin header THT 1x08 2.54mm single row")
    (path /5E064A7A)
    (fp_text reference J1 (at 0 -2.33 90) (layer F.SilkS)
      (effects (font (size 1 1) (thickness 0.15)))
    )
    (fp_text value Conn_01x08_MountingPin (at -11.7 0.04 90) (layer F.Fab)
      (effects (font (size 1 1) (thickness 0.15)))
    )
    (fp_line (start -0.635 -1.27) (end 1.27 -1.27) (layer F.Fab) (width 0.1))
    (fp_line (start 1.27 -1.27) (end 1.27 19.05) (layer F.Fab) (width 0.1))
    (fp_line (start 1.27 19.05) (end -1.27 19.05) (layer F.Fab) (width 0.1))
    (fp_line (start -1.27 19.05) (end -1.27 -0.635) (layer F.Fab) (width 0.1))
    (fp_line (start -1.27 -0.635) (end -0.635 -1.27) (layer F.Fab) (width 0.1))
    (fp_line (start -1.33 19.11) (end 1.33 19.11) (layer F.SilkS) (width 0.12))
    (fp_line (start -1.33 1.27) (end -1.33 19.11) (layer F.SilkS) (width 0.12))
    (fp_line (start 1.33 1.27) (end 1.33 19.11) (layer F.SilkS) (width 0.12))
    (fp_line (start -1.33 1.27) (end 1.33 1.27) (layer F.SilkS) (width 0.12))
    (fp_line (start -1.33 0) (end -1.33 -1.33) (layer F.SilkS) (width 0.12))
    (fp_line (start -1.33 -1.33) (end 0 -1.33) (layer F.SilkS) (width 0.12))
    (fp_line (start -1.8 -1.8) (end -1.8 19.55) (layer F.CrtYd) (width 0.05))
    (fp_line (start -1.8 19.55) (end 1.8 19.55) (layer F.CrtYd) (width 0.05))
    (fp_line (start 1.8 19.55) (end 1.8 -1.8) (layer F.CrtYd) (width 0.05))
    (fp_line (start 1.8 -1.8) (end -1.8 -1.8) (layer F.CrtYd) (width 0.05))
    (fp_text user %R (at 0 8.89) (layer F.Fab)
      (effects (font (size 1 1) (thickness 0.15)))
    )
    (pad 1 thru_hole rect (at 0 0 270) (size 1.7 1.7) (drill 1) (layers *.Cu *.Mask)
      (net 7 A6))
    (pad 2 thru_hole oval (at 0 2.54 270) (size 1.7 1.7) (drill 1) (layers *.Cu *.Mask)
      (net 8 A7))
    (pad 3 thru_hole oval (at 0 5.08 270) (size 1.7 1.7) (drill 1) (layers *.Cu *.Mask)
      (net 3 DTR))
    (pad 4 thru_hole oval (at 0 7.62 270) (size 1.7 1.7) (drill 1) (layers *.Cu *.Mask)
      (net 9 TXO))
    (pad 5 thru_hole oval (at 0 10.16 270) (size 1.7 1.7) (drill 1) (layers *.Cu *.Mask)
      (net 10 RXI))
    (pad 6 thru_hole oval (at 0 12.7 270) (size 1.7 1.7) (drill 1) (layers *.Cu *.Mask)
      (net 4 VCC))
    (pad 7 thru_hole oval (at 0 15.24 270) (size 1.7 1.7) (drill 1) (layers *.Cu *.Mask)
      (net 1 GND))
    (pad 8 thru_hole oval (at 0 17.78 270) (size 1.7 1.7) (drill 1) (layers *.Cu *.Mask)
      (net 1 GND))
    (model ${KISYS3DMOD}/Pin_Headers.3dshapes/Pin_Header_Straight_1x08_Pitch2.54mm.wrl
      (at (xyz 0 0 0))
      (scale (xyz 1 1 1))
      (rotate (xyz 0 0 0))
    )
  )

  (module LEDs:LED_0603 (layer F.Cu) (tedit 57FE93A5) (tstamp 5E03A0A4)
    (at 245.5 45.1 180)
    (descr "LED 0603 smd package")
    (tags "LED led 0603 SMD smd SMT smt smdled SMDLED smtled SMTLED")
    (path /5E0247AD)
    (attr smd)
    (fp_text reference D3 (at 0 -1.25) (layer F.SilkS)
      (effects (font (size 1 1) (thickness 0.15)))
    )
    (fp_text value Green (at 3.5 -0.5) (layer F.Fab)
      (effects (font (size 1 1) (thickness 0.15)))
    )
    (fp_line (start -1.3 -0.5) (end -1.3 0.5) (layer F.SilkS) (width 0.12))
    (fp_line (start -0.2 -0.2) (end -0.2 0.2) (layer F.Fab) (width 0.1))
    (fp_line (start -0.15 0) (end 0.15 -0.2) (layer F.Fab) (width 0.1))
    (fp_line (start 0.15 0.2) (end -0.15 0) (layer F.Fab) (width 0.1))
    (fp_line (start 0.15 -0.2) (end 0.15 0.2) (layer F.Fab) (width 0.1))
    (fp_line (start 0.8 0.4) (end -0.8 0.4) (layer F.Fab) (width 0.1))
    (fp_line (start 0.8 -0.4) (end 0.8 0.4) (layer F.Fab) (width 0.1))
    (fp_line (start -0.8 -0.4) (end 0.8 -0.4) (layer F.Fab) (width 0.1))
    (fp_line (start -0.8 0.4) (end -0.8 -0.4) (layer F.Fab) (width 0.1))
    (fp_line (start -1.3 0.5) (end 0.8 0.5) (layer F.SilkS) (width 0.12))
    (fp_line (start -1.3 -0.5) (end 0.8 -0.5) (layer F.SilkS) (width 0.12))
    (fp_line (start 1.45 -0.65) (end 1.45 0.65) (layer F.CrtYd) (width 0.05))
    (fp_line (start 1.45 0.65) (end -1.45 0.65) (layer F.CrtYd) (width 0.05))
    (fp_line (start -1.45 0.65) (end -1.45 -0.65) (layer F.CrtYd) (width 0.05))
    (fp_line (start -1.45 -0.65) (end 1.45 -0.65) (layer F.CrtYd) (width 0.05))
    (pad 2 smd rect (at 0.8 0) (size 0.8 0.8) (layers F.Cu F.Paste F.Mask)
      (net 6 "Net-(D3-Pad2)"))
    (pad 1 smd rect (at -0.8 0) (size 0.8 0.8) (layers F.Cu F.Paste F.Mask)
      (net 1 GND))
    (model ${KISYS3DMOD}/LEDs.3dshapes/LED_0603.wrl
      (at (xyz 0 0 0))
      (scale (xyz 1 1 1))
      (rotate (xyz 0 0 180))
    )
  )

  (module Capacitors_Tantalum_SMD:CP_Tantalum_Case-A_EIA-3216-18_Reflow (layer F.Cu) (tedit 58CC8C08) (tstamp 5E03A0A1)
    (at 239.1 30.7 180)
    (descr "Tantalum capacitor, Case A, EIA 3216-18, 3.2x1.6x1.6mm, Reflow soldering footprint")
    (tags "capacitor tantalum smd")
    (path /5E03F8CD)
    (attr smd)
    (fp_text reference C19 (at 0 -2.55) (layer F.SilkS)
      (effects (font (size 1 1) (thickness 0.15)))
    )
    (fp_text value 10uF (at 0 2.55) (layer F.Fab)
      (effects (font (size 1 1) (thickness 0.15)))
    )
    (fp_text user %R (at 0 0) (layer F.Fab)
      (effects (font (size 0.7 0.7) (thickness 0.105)))
    )
    (fp_line (start -2.75 -1.2) (end -2.75 1.2) (layer F.CrtYd) (width 0.05))
    (fp_line (start -2.75 1.2) (end 2.75 1.2) (layer F.CrtYd) (width 0.05))
    (fp_line (start 2.75 1.2) (end 2.75 -1.2) (layer F.CrtYd) (width 0.05))
    (fp_line (start 2.75 -1.2) (end -2.75 -1.2) (layer F.CrtYd) (width 0.05))
    (fp_line (start -1.6 -0.8) (end -1.6 0.8) (layer F.Fab) (width 0.1))
    (fp_line (start -1.6 0.8) (end 1.6 0.8) (layer F.Fab) (width 0.1))
    (fp_line (start 1.6 0.8) (end 1.6 -0.8) (layer F.Fab) (width 0.1))
    (fp_line (start 1.6 -0.8) (end -1.6 -0.8) (layer F.Fab) (width 0.1))
    (fp_line (start -1.28 -0.8) (end -1.28 0.8) (layer F.Fab) (width 0.1))
    (fp_line (start -1.12 -0.8) (end -1.12 0.8) (layer F.Fab) (width 0.1))
    (fp_line (start -2.65 -1.05) (end 1.6 -1.05) (layer F.SilkS) (width 0.12))
    (fp_line (start -2.65 1.05) (end 1.6 1.05) (layer F.SilkS) (width 0.12))
    (fp_line (start -2.65 -1.05) (end -2.65 1.05) (layer F.SilkS) (width 0.12))
    (pad 1 smd rect (at -1.375 0 180) (size 1.95 1.5) (layers F.Cu F.Paste F.Mask)
      (net 5 RAW))
    (pad 2 smd rect (at 1.375 0 180) (size 1.95 1.5) (layers F.Cu F.Paste F.Mask)
      (net 1 GND))
    (model Capacitors_Tantalum_SMD.3dshapes/CP_Tantalum_Case-A_EIA-3216-18.wrl
      (at (xyz 0 0 0))
      (scale (xyz 1 1 1))
      (rotate (xyz 0 0 0))
    )
  )

  (module Capacitors_Tantalum_SMD:CP_Tantalum_Case-A_EIA-3216-18_Reflow (layer F.Cu) (tedit 58CC8C08) (tstamp 5E03A09E)
    (at 246.3 33.3 90)
    (descr "Tantalum capacitor, Case A, EIA 3216-18, 3.2x1.6x1.6mm, Reflow soldering footprint")
    (tags "capacitor tantalum smd")
    (path /5E050BD9)
    (attr smd)
    (fp_text reference C13 (at 0 -2.55 90) (layer F.SilkS)
      (effects (font (size 1 1) (thickness 0.15)))
    )
    (fp_text value 10uF (at 0 2.55 90) (layer F.Fab)
      (effects (font (size 1 1) (thickness 0.15)))
    )
    (fp_text user %R (at 0 0 90) (layer F.Fab)
      (effects (font (size 0.7 0.7) (thickness 0.105)))
    )
    (fp_line (start -2.75 -1.2) (end -2.75 1.2) (layer F.CrtYd) (width 0.05))
    (fp_line (start -2.75 1.2) (end 2.75 1.2) (layer F.CrtYd) (width 0.05))
    (fp_line (start 2.75 1.2) (end 2.75 -1.2) (layer F.CrtYd) (width 0.05))
    (fp_line (start 2.75 -1.2) (end -2.75 -1.2) (layer F.CrtYd) (width 0.05))
    (fp_line (start -1.6 -0.8) (end -1.6 0.8) (layer F.Fab) (width 0.1))
    (fp_line (start -1.6 0.8) (end 1.6 0.8) (layer F.Fab) (width 0.1))
    (fp_line (start 1.6 0.8) (end 1.6 -0.8) (layer F.Fab) (width 0.1))
    (fp_line (start 1.6 -0.8) (end -1.6 -0.8) (layer F.Fab) (width 0.1))
    (fp_line (start -1.28 -0.8) (end -1.28 0.8) (layer F.Fab) (width 0.1))
    (fp_line (start -1.12 -0.8) (end -1.12 0.8) (layer F.Fab) (width 0.1))
    (fp_line (start -2.65 -1.05) (end 1.6 -1.05) (layer F.SilkS) (width 0.12))
    (fp_line (start -2.65 1.05) (end 1.6 1.05) (layer F.SilkS) (width 0.12))
    (fp_line (start -2.65 -1.05) (end -2.65 1.05) (layer F.SilkS) (width 0.12))
    (pad 1 smd rect (at -1.375 0 90) (size 1.95 1.5) (layers F.Cu F.Paste F.Mask)
      (net 4 VCC))
    (pad 2 smd rect (at 1.375 0 90) (size 1.95 1.5) (layers F.Cu F.Paste F.Mask)
      (net 1 GND))
    (model Capacitors_Tantalum_SMD.3dshapes/CP_Tantalum_Case-A_EIA-3216-18.wrl
      (at (xyz 0 0 0))
      (scale (xyz 1 1 1))
      (rotate (xyz 0 0 0))
    )
  )

  (module Capacitors_SMD:C_0603 (layer F.Cu) (tedit 59958EE7) (tstamp 5E03A09B)
    (at 245.9 36.5)
    (descr "Capacitor SMD 0603, reflow soldering, AVX (see smccp.pdf)")
    (tags "capacitor 0603")
    (path /5E0552BE)
    (attr smd)
    (fp_text reference C10 (at 0 -1.5) (layer F.SilkS)
      (effects (font (size 1 1) (thickness 0.15)))
    )
    (fp_text value 0.1uF (at 0 1.5) (layer F.Fab)
      (effects (font (size 1 1) (thickness 0.15)))
    )
    (fp_line (start 1.4 0.65) (end -1.4 0.65) (layer F.CrtYd) (width 0.05))
    (fp_line (start 1.4 0.65) (end 1.4 -0.65) (layer F.CrtYd) (width 0.05))
    (fp_line (start -1.4 -0.65) (end -1.4 0.65) (layer F.CrtYd) (width 0.05))
    (fp_line (start -1.4 -0.65) (end 1.4 -0.65) (layer F.CrtYd) (width 0.05))
    (fp_line (start 0.35 0.6) (end -0.35 0.6) (layer F.SilkS) (width 0.12))
    (fp_line (start -0.35 -0.6) (end 0.35 -0.6) (layer F.SilkS) (width 0.12))
    (fp_line (start -0.8 -0.4) (end 0.8 -0.4) (layer F.Fab) (width 0.1))
    (fp_line (start 0.8 -0.4) (end 0.8 0.4) (layer F.Fab) (width 0.1))
    (fp_line (start 0.8 0.4) (end -0.8 0.4) (layer F.Fab) (width 0.1))
    (fp_line (start -0.8 0.4) (end -0.8 -0.4) (layer F.Fab) (width 0.1))
    (fp_text user %R (at 0 0) (layer F.Fab)
      (effects (font (size 0.3 0.3) (thickness 0.075)))
    )
    (pad 2 smd rect (at 0.75 0) (size 0.8 0.75) (layers F.Cu F.Paste F.Mask)
      (net 4 VCC))
    (pad 1 smd rect (at -0.75 0) (size 0.8 0.75) (layers F.Cu F.Paste F.Mask)
      (net 1 GND))
    (model Capacitors_SMD.3dshapes/C_0603.wrl
      (at (xyz 0 0 0))
      (scale (xyz 1 1 1))
      (rotate (xyz 0 0 0))
    )
  )

  (module Capacitors_SMD:C_0603 (layer F.Cu) (tedit 59958EE7) (tstamp 5E03A098)
    (at 235.1 30.6 270)
    (descr "Capacitor SMD 0603, reflow soldering, AVX (see smccp.pdf)")
    (tags "capacitor 0603")
    (path /5E02717F)
    (attr smd)
    (fp_text reference C2 (at 0 -1.5 90) (layer F.SilkS)
      (effects (font (size 1 1) (thickness 0.15)))
    )
    (fp_text value 0.1uF (at 0 1.5 90) (layer F.Fab)
      (effects (font (size 1 1) (thickness 0.15)))
    )
    (fp_line (start 1.4 0.65) (end -1.4 0.65) (layer F.CrtYd) (width 0.05))
    (fp_line (start 1.4 0.65) (end 1.4 -0.65) (layer F.CrtYd) (width 0.05))
    (fp_line (start -1.4 -0.65) (end -1.4 0.65) (layer F.CrtYd) (width 0.05))
    (fp_line (start -1.4 -0.65) (end 1.4 -0.65) (layer F.CrtYd) (width 0.05))
    (fp_line (start 0.35 0.6) (end -0.35 0.6) (layer F.SilkS) (width 0.12))
    (fp_line (start -0.35 -0.6) (end 0.35 -0.6) (layer F.SilkS) (width 0.12))
    (fp_line (start -0.8 -0.4) (end 0.8 -0.4) (layer F.Fab) (width 0.1))
    (fp_line (start 0.8 -0.4) (end 0.8 0.4) (layer F.Fab) (width 0.1))
    (fp_line (start 0.8 0.4) (end -0.8 0.4) (layer F.Fab) (width 0.1))
    (fp_line (start -0.8 0.4) (end -0.8 -0.4) (layer F.Fab) (width 0.1))
    (fp_text user %R (at 0 0 90) (layer F.Fab)
      (effects (font (size 0.3 0.3) (thickness 0.075)))
    )
    (pad 2 smd rect (at 0.75 0 270) (size 0.8 0.75) (layers F.Cu F.Paste F.Mask)
      (net 15 RESET))
    (pad 1 smd rect (at -0.75 0 270) (size 0.8 0.75) (layers F.Cu F.Paste F.Mask)
      (net 3 DTR))
    (model Capacitors_SMD.3dshapes/C_0603.wrl
      (at (xyz 0 0 0))
      (scale (xyz 1 1 1))
      (rotate (xyz 0 0 0))
    )
  )

  (gr_line (start 249.8 26.7) (end 249.8 49.9) (layer Edge.Cuts) (width 0.1))
  (gr_line (start 226.5 26.7) (end 249.8 26.7) (layer Edge.Cuts) (width 0.1))
  (gr_line (start 226.5 49.9) (end 226.5 26.7) (layer Edge.Cuts) (width 0.1))
  (gr_line (start 249.8 49.9) (end 226.5 49.9) (layer Edge.Cuts) (width 0.1))

  (segment (start 229.699999 30.8) (end 229.799999 30.9) (width 0.25) (layer B.Cu) (net 1))
  (via (at 229.799999 30.9) (size 0.8) (drill 0.4) (layers F.Cu B.Cu) (net 1))
  (segment (start 229.6 30.8) (end 229.699999 30.8) (width 0.25) (layer B.Cu) (net 1))
  (via (at 230.2 32.7) (size 0.8) (drill 0.4) (layers F.Cu B.Cu) (net 1))
  (segment (start 229.799999 32.299999) (end 230.2 32.7) (width 0.25) (layer F.Cu) (net 1))
  (segment (start 229.799999 30.9) (end 229.799999 32.299999) (width 0.25) (layer F.Cu) (net 1))
  (segment (start 248.3 30.925) (end 248.3 30.74) (width 0.25) (layer F.Cu) (net 1))
  (segment (start 247.3 31.925) (end 248.3 30.925) (width 0.25) (layer F.Cu) (net 1))
  (segment (start 246.3 31.925) (end 247.3 31.925) (width 0.25) (layer F.Cu) (net 1))
  (segment (start 245.15 37.25) (end 245.4 37.5) (width 0.25) (layer F.Cu) (net 1))
  (segment (start 245.15 36.5) (end 245.15 37.25) (width 0.25) (layer F.Cu) (net 1))
  (via (at 246.005704 37.500296) (size 0.8) (drill 0.4) (layers F.Cu B.Cu) (net 1))
  (segment (start 231.3 28.9) (end 230.6 28.2) (width 0.25) (layer F.Cu) (net 1))
  (segment (start 231.3 29.35) (end 231.3 28.9) (width 0.25) (layer F.Cu) (net 1))
  (segment (start 234.8 38.6) (end 234.875001 38.524999) (width 0.25) (layer F.Cu) (net 1))
  (segment (start 234.8 37) (end 233.75 37) (width 0.25) (layer F.Cu) (net 1))
  (segment (start 234.875001 37.075001) (end 234.8 37) (width 0.25) (layer F.Cu) (net 1))
  (segment (start 233.75 38.6) (end 234.8 38.6) (width 0.25) (layer F.Cu) (net 1))
  (segment (start 235.575001 37.775001) (end 235.6 37.8) (width 0.25) (layer F.Cu) (net 1))
  (segment (start 234.875001 37.775001) (end 235.575001 37.775001) (width 0.25) (layer F.Cu) (net 1))
  (segment (start 234.875001 38.524999) (end 234.875001 37.775001) (width 0.25) (layer F.Cu) (net 1))
  (via (at 235.6 37.8) (size 0.8) (drill 0.4) (layers F.Cu B.Cu) (net 1))
  (segment (start 234.875001 37.775001) (end 234.875001 37.075001) (width 0.25) (layer F.Cu) (net 1))
  (via (at 231.8 41.899998) (size 0.8) (drill 0.4) (layers F.Cu B.Cu) (net 1))
  (segment (start 231.8 41.5) (end 231.8 41.899998) (width 0.25) (layer F.Cu) (net 1))
  (segment (start 242.25 37.8) (end 235.6 37.8) (width 0.25) (layer F.Cu) (net 1))
  (segment (start 245.400296 37.500296) (end 245.4 37.5) (width 0.25) (layer F.Cu) (net 1))
  (segment (start 246.005704 37.500296) (end 245.400296 37.500296) (width 0.25) (layer F.Cu) (net 1))
  (via (at 246.275009 43.8) (size 0.8) (drill 0.4) (layers F.Cu B.Cu) (net 1))
  (segment (start 246.3 43.824991) (end 246.275009 43.8) (width 0.25) (layer F.Cu) (net 1))
  (segment (start 246.3 45.1) (end 246.3 43.824991) (width 0.25) (layer F.Cu) (net 1))
  (segment (start 237.725 30.7) (end 237.95 30.7) (width 0.25) (layer F.Cu) (net 1))
  (segment (start 239.252335 31.787337) (end 237.78923 30.324232) (width 0.25) (layer F.Cu) (net 1))
  (segment (start 237.78923 30.324232) (end 236.4 30.324232) (width 0.25) (layer F.Cu) (net 1))
  (segment (start 239.037337 31.787337) (end 239.252335 31.787337) (width 0.25) (layer F.Cu) (net 1))
  (via (at 236.4 30.324232) (size 0.8) (drill 0.4) (layers F.Cu B.Cu) (net 1))
  (segment (start 237.95 30.7) (end 239.037337 31.787337) (width 0.25) (layer F.Cu) (net 1))
  (segment (start 236.4 30.324232) (end 233.697185 30.324232) (width 0.25) (layer B.Cu) (net 1))
  (segment (start 233.648001 30.373415) (end 232.526585 30.373415) (width 0.25) (layer B.Cu) (net 1))
  (segment (start 233.697185 30.324232) (end 233.648001 30.373415) (width 0.25) (layer B.Cu) (net 1))
  (segment (start 243.375001 37.724999) (end 243.3 37.8) (width 0.25) (layer F.Cu) (net 1))
  (segment (start 243.375001 35.951997) (end 243.375001 37.724999) (width 0.25) (layer F.Cu) (net 1))
  (segment (start 243.851999 35.474999) (end 243.375001 35.951997) (width 0.25) (layer F.Cu) (net 1))
  (segment (start 244.749999 35.474999) (end 243.851999 35.474999) (width 0.25) (layer F.Cu) (net 1))
  (segment (start 243.3 37.8) (end 242.25 37.8) (width 0.25) (layer F.Cu) (net 1))
  (segment (start 245.15 35.875) (end 244.749999 35.474999) (width 0.25) (layer F.Cu) (net 1))
  (segment (start 245.15 36.5) (end 245.15 35.875) (width 0.25) (layer F.Cu) (net 1))
  (segment (start 245.975 31.6) (end 246.3 31.925) (width 0.25) (layer F.Cu) (net 1))
  (segment (start 244.6 31.6) (end 245.975 31.6) (width 0.25) (layer F.Cu) (net 1))
  (segment (start 243.3 38.6) (end 243.6 38.9) (width 0.25) (layer F.Cu) (net 2))
  (segment (start 242.25 38.6) (end 243.3 38.6) (width 0.25) (layer F.Cu) (net 2))
  (segment (start 244.775 39) (end 245.4 39) (width 0.25) (layer F.Cu) (net 2))
  (segment (start 244.675 38.9) (end 244.775 39) (width 0.25) (layer F.Cu) (net 2))
  (segment (start 243.6 38.9) (end 244.675 38.9) (width 0.25) (layer F.Cu) (net 2))
  (segment (start 239.910001 29.049999) (end 240.76 28.2) (width 0.25) (layer F.Cu) (net 3))
  (segment (start 239.584999 29.375001) (end 239.910001 29.049999) (width 0.25) (layer F.Cu) (net 3))
  (segment (start 236.199999 29.375001) (end 239.584999 29.375001) (width 0.25) (layer F.Cu) (net 3))
  (segment (start 235.725 29.85) (end 236.199999 29.375001) (width 0.25) (layer F.Cu) (net 3))
  (segment (start 235.1 29.85) (end 235.725 29.85) (width 0.25) (layer F.Cu) (net 3))
  (segment (start 245.725 34.1) (end 246.3 34.675) (width 0.25) (layer F.Cu) (net 4))
  (segment (start 244.65 34.1) (end 245.725 34.1) (width 0.25) (layer F.Cu) (net 4))
  (segment (start 246.65 35.025) (end 246.3 34.675) (width 0.25) (layer F.Cu) (net 4))
  (segment (start 246.65 36.5) (end 246.65 35.025) (width 0.25) (layer F.Cu) (net 4))
  (segment (start 247.62 36.5) (end 248.3 35.82) (width 0.25) (layer F.Cu) (net 4))
  (segment (start 246.65 36.5) (end 247.62 36.5) (width 0.25) (layer F.Cu) (net 4))
  (segment (start 246.65 37.125) (end 246.65 36.5) (width 0.25) (layer F.Cu) (net 4))
  (segment (start 246.6 40.1) (end 246.65 40.05) (width 0.25) (layer F.Cu) (net 4))
  (segment (start 246.6 40.2) (end 246.6 40.1) (width 0.25) (layer F.Cu) (net 4))
  (segment (start 242.25 40.2) (end 246.6 40.2) (width 0.25) (layer F.Cu) (net 4))
  (segment (start 246.730705 37.205705) (end 246.65 37.125) (width 0.25) (layer F.Cu) (net 4))
  (segment (start 246.730705 39.969295) (end 246.730705 37.205705) (width 0.25) (layer F.Cu) (net 4))
  (segment (start 246.6 40.1) (end 246.730705 39.969295) (width 0.25) (layer F.Cu) (net 4))
  (segment (start 241.389998 40.2) (end 242.25 40.2) (width 0.25) (layer F.Cu) (net 4))
  (segment (start 232.45 28.89) (end 233.14 28.2) (width 0.25) (layer F.Cu) (net 4))
  (segment (start 232.45 30.1) (end 232.45 28.89) (width 0.25) (layer F.Cu) (net 4))
  (via (at 231.1 31.7) (size 0.8) (drill 0.4) (layers F.Cu B.Cu) (net 4))
  (segment (start 230.524999 30.339999) (end 230.524999 31.360001) (width 0.25) (layer F.Cu) (net 4))
  (segment (start 230.764998 30.1) (end 230.524999 30.339999) (width 0.25) (layer F.Cu) (net 4))
  (segment (start 230.864998 31.7) (end 231.1 31.7) (width 0.25) (layer F.Cu) (net 4))
  (segment (start 230.524999 31.360001) (end 230.864998 31.7) (width 0.25) (layer F.Cu) (net 4))
  (segment (start 232.45 30.1) (end 230.764998 30.1) (width 0.25) (layer F.Cu) (net 4))
  (via (at 232.257652 37.857652) (size 0.8) (drill 0.4) (layers F.Cu B.Cu) (net 4))
  (segment (start 231.1 36.7) (end 232.257652 37.857652) (width 0.25) (layer B.Cu) (net 4))
  (segment (start 231.1 31.7) (end 231.1 36.7) (width 0.25) (layer B.Cu) (net 4))
  (segment (start 233.692348 37.857652) (end 233.75 37.8) (width 0.25) (layer F.Cu) (net 4))
  (segment (start 232.257652 37.857652) (end 233.692348 37.857652) (width 0.25) (layer F.Cu) (net 4))
  (segment (start 232.257652 38.423337) (end 232.257652 37.857652) (width 0.25) (layer F.Cu) (net 4))
  (segment (start 232.257652 38.957652) (end 232.257652 38.423337) (width 0.25) (layer F.Cu) (net 4))
  (segment (start 232.7 39.4) (end 232.257652 38.957652) (width 0.25) (layer F.Cu) (net 4))
  (segment (start 233.75 39.4) (end 232.7 39.4) (width 0.25) (layer F.Cu) (net 4))
  (segment (start 233.75 39.4) (end 239 39.4) (width 0.25) (layer F.Cu) (net 4))
  (segment (start 239.8 40.2) (end 241.389998 40.2) (width 0.25) (layer F.Cu) (net 4))
  (segment (start 239 39.4) (end 239.8 40.2) (width 0.25) (layer F.Cu) (net 4))
  (segment (start 248.224999 29.375001) (end 248.3 29.3) (width 0.25) (layer F.Cu) (net 5))
  (segment (start 246.654999 29.375001) (end 248.224999 29.375001) (width 0.25) (layer F.Cu) (net 5))
  (segment (start 245.38 30.65) (end 246.654999 29.375001) (width 0.25) (layer F.Cu) (net 5))
  (segment (start 248.3 29.3) (end 248.3 28.2) (width 0.25) (layer F.Cu) (net 5))
  (segment (start 244.6 30.65) (end 245.38 30.65) (width 0.25) (layer F.Cu) (net 5))
  (segment (start 243.82 32.55) (end 244.6 32.55) (width 0.25) (layer F.Cu) (net 5))
  (segment (start 243.744999 32.474999) (end 243.82 32.55) (width 0.25) (layer F.Cu) (net 5))
  (segment (start 243.744999 30.725001) (end 243.744999 32.474999) (width 0.25) (layer F.Cu) (net 5))
  (segment (start 243.82 30.65) (end 243.744999 30.725001) (width 0.25) (layer F.Cu) (net 5))
  (segment (start 240.7 30.7) (end 240.475 30.7) (width 0.25) (layer F.Cu) (net 5))
  (segment (start 241.7 29.7) (end 240.7 30.7) (width 0.25) (layer F.Cu) (net 5))
  (segment (start 242.87 29.7) (end 241.7 29.7) (width 0.25) (layer F.Cu) (net 5))
  (segment (start 243.82 30.65) (end 242.87 29.7) (width 0.25) (layer F.Cu) (net 5))
  (segment (start 244.6 30.65) (end 243.82 30.65) (width 0.25) (layer F.Cu) (net 5))
  (segment (start 245.1 45.5) (end 244.7 45.1) (width 0.25) (layer F.Cu) (net 6))
  (segment (start 245.1 46.4) (end 245.1 45.5) (width 0.25) (layer F.Cu) (net 6))
  (via (at 244.2 36.2) (size 0.8) (drill 0.4) (layers F.Cu B.Cu) (net 7))
  (segment (start 244.949998 29.090002) (end 245.84 28.2) (width 0.25) (layer B.Cu) (net 7))
  (segment (start 244.764999 38.225001) (end 244.2 37.660002) (width 0.25) (layer F.Cu) (net 7))
  (segment (start 245.985003 38.225001) (end 244.764999 38.225001) (width 0.25) (layer F.Cu) (net 7))
  (segment (start 246.100001 38.339999) (end 245.985003 38.225001) (width 0.25) (layer F.Cu) (net 7))
  (segment (start 246.100001 39.660001) (end 246.100001 38.339999) (width 0.25) (layer F.Cu) (net 7))
  (segment (start 246.035001 39.725001) (end 246.100001 39.660001) (width 0.25) (layer F.Cu) (net 7))
  (segment (start 244.764999 39.725001) (end 246.035001 39.725001) (width 0.25) (layer F.Cu) (net 7))
  (segment (start 244.2 37.660002) (end 244.2 36.2) (width 0.25) (layer F.Cu) (net 7))
  (segment (start 244.439998 39.4) (end 244.764999 39.725001) (width 0.25) (layer F.Cu) (net 7))
  (segment (start 242.25 39.4) (end 244.439998 39.4) (width 0.25) (layer F.Cu) (net 7))
  (segment (start 244.2 29.84) (end 245.84 28.2) (width 0.25) (layer B.Cu) (net 7))
  (segment (start 244.2 36.2) (end 244.2 29.84) (width 0.25) (layer B.Cu) (net 7))
  (segment (start 242.25 37) (end 239.705893 37) (width 0.25) (layer F.Cu) (net 8))
  (via (at 239.061497 35.856519) (size 0.8) (drill 0.4) (layers F.Cu B.Cu) (net 8))
  (segment (start 239.061497 36.355604) (end 239.061497 35.856519) (width 0.25) (layer F.Cu) (net 8))
  (segment (start 239.705893 37) (end 239.061497 36.355604) (width 0.25) (layer F.Cu) (net 8))
  (segment (start 239.061497 34.815558) (end 241.677055 32.2) (width 0.25) (layer B.Cu) (net 8))
  (segment (start 239.061497 35.856519) (end 239.061497 34.815558) (width 0.25) (layer B.Cu) (net 8))
  (segment (start 241.677055 32.2) (end 241.677055 32.122945) (width 0.25) (layer B.Cu) (net 8))
  (segment (start 243.3 30.5) (end 243.3 28.2) (width 0.25) (layer B.Cu) (net 8))
  (segment (start 241.677055 32.122945) (end 243.3 30.5) (width 0.25) (layer B.Cu) (net 8))
  (segment (start 236 33.089998) (end 235.335003 32.425001) (width 0.25) (layer F.Cu) (net 9))
  (segment (start 236 33.95) (end 236 33.089998) (width 0.25) (layer F.Cu) (net 9))
  (via (at 236.393861 36.113814) (size 0.8) (drill 0.4) (layers F.Cu B.Cu) (net 9))
  (segment (start 236 35.719953) (end 236.393861 36.113814) (width 0.25) (layer F.Cu) (net 9))
  (segment (start 236 33.95) (end 236 35.719953) (width 0.25) (layer F.Cu) (net 9))
  (segment (start 236.959546 36.113814) (end 239.069999 34.003361) (width 0.25) (layer B.Cu) (net 9))
  (segment (start 239.069999 29.049999) (end 238.22 28.2) (width 0.25) (layer B.Cu) (net 9))
  (segment (start 236.393861 36.113814) (end 236.959546 36.113814) (width 0.25) (layer B.Cu) (net 9))
  (segment (start 239.069999 34.003361) (end 239.096639 34.003361) (width 0.25) (layer B.Cu) (net 9))
  (segment (start 239.096639 34.003361) (end 240.5 32.6) (width 0.25) (layer B.Cu) (net 9))
  (segment (start 240.5 30.48) (end 239.069999 29.049999) (width 0.25) (layer B.Cu) (net 9))
  (segment (start 240.5 32.6) (end 240.5 30.48) (width 0.25) (layer B.Cu) (net 9))
  (segment (start 234.103108 32.425001) (end 235.335003 32.425001) (width 0.25) (layer F.Cu) (net 9))
  (segment (start 233.103108 33.425001) (end 234.103108 32.425001) (width 0.25) (layer F.Cu) (net 9))
  (segment (start 229.474999 33.048001) (end 229.851999 33.425001) (width 0.25) (layer F.Cu) (net 9))
  (segment (start 229.851999 33.425001) (end 233.103108 33.425001) (width 0.25) (layer F.Cu) (net 9))
  (segment (start 228.8 32.160998) (end 229.474999 32.835997) (width 0.25) (layer F.Cu) (net 9))
  (segment (start 228.8 31.5) (end 228.8 32.160998) (width 0.25) (layer F.Cu) (net 9))
  (segment (start 229.474999 32.835997) (end 229.474999 33.048001) (width 0.25) (layer F.Cu) (net 9))
  (segment (start 228.849999 31.450001) (end 228.849999 31.409999) (width 0.25) (layer F.Cu) (net 9))
  (segment (start 228.849999 31.409999) (end 228 30.56) (width 0.25) (layer F.Cu) (net 9))
  (segment (start 228.8 31.5) (end 228.849999 31.450001) (width 0.25) (layer F.Cu) (net 9))
  (segment (start 228 33.1) (end 229.149991 34.249991) (width 0.25) (layer F.Cu) (net 10))
  (via (at 233.661111 33.94) (size 0.8) (drill 0.4) (layers F.Cu B.Cu) (net 10))
  (segment (start 233.35112 34.249991) (end 233.661111 33.94) (width 0.25) (layer F.Cu) (net 10))
  (segment (start 229.149991 34.249991) (end 233.35112 34.249991) (width 0.25) (layer F.Cu) (net 10))
  (via (at 236.8 35.2) (size 0.8) (drill 0.4) (layers F.Cu B.Cu) (net 10))
  (segment (start 234.921111 35.2) (end 236.8 35.2) (width 0.25) (layer B.Cu) (net 10))
  (segment (start 233.661111 33.94) (end 234.921111 35.2) (width 0.25) (layer B.Cu) (net 10))
  (segment (start 236.8 35.2) (end 236.8 33.95) (width 0.25) (layer F.Cu) (net 10))
  (segment (start 236.8 32.703997) (end 236.796557 32.700554) (width 0.25) (layer F.Cu) (net 10))
  (via (at 236.796557 32.700554) (size 0.8) (drill 0.4) (layers F.Cu B.Cu) (net 10))
  (segment (start 236.8 33.95) (end 236.8 32.703997) (width 0.25) (layer F.Cu) (net 10))
  (segment (start 236.529999 29.049999) (end 235.68 28.2) (width 0.25) (layer B.Cu) (net 10))
  (segment (start 238.962348 31.482348) (end 236.529999 29.049999) (width 0.25) (layer B.Cu) (net 10))
  (segment (start 238.962348 32.585348) (end 238.962348 31.482348) (width 0.25) (layer B.Cu) (net 10))
  (segment (start 238.447143 33.100553) (end 238.962348 32.585348) (width 0.25) (layer B.Cu) (net 10))
  (segment (start 237.196556 33.100553) (end 238.447143 33.100553) (width 0.25) (layer B.Cu) (net 10))
  (segment (start 236.796557 32.700554) (end 237.196556 33.100553) (width 0.25) (layer B.Cu) (net 10))
  (segment (start 234.675 42.45) (end 228.785 48.34) (width 0.25) (layer F.Cu) (net 11))
  (segment (start 228.785 48.34) (end 228 48.34) (width 0.25) (layer F.Cu) (net 11))
  (segment (start 235.2 42.45) (end 234.675 42.45) (width 0.25) (layer F.Cu) (net 11))
  (segment (start 233.550001 36.399999) (end 233.75 36.2) (width 0.25) (layer F.Cu) (net 12))
  (segment (start 232.689999 36.399999) (end 233.550001 36.399999) (width 0.25) (layer F.Cu) (net 12))
  (segment (start 230.524999 38.564999) (end 232.689999 36.399999) (width 0.25) (layer F.Cu) (net 12))
  (segment (start 230.524999 43.275001) (end 230.524999 38.564999) (width 0.25) (layer F.Cu) (net 12))
  (segment (start 228 45.8) (end 230.524999 43.275001) (width 0.25) (layer F.Cu) (net 12))
  (segment (start 230.07499 38.02501) (end 232.7 35.4) (width 0.25) (layer F.Cu) (net 13))
  (segment (start 232.7 35.4) (end 233.75 35.4) (width 0.25) (layer F.Cu) (net 13))
  (segment (start 230.07499 41.18501) (end 230.07499 38.02501) (width 0.25) (layer F.Cu) (net 13))
  (segment (start 228 43.26) (end 230.07499 41.18501) (width 0.25) (layer F.Cu) (net 13))
  (segment (start 229.624981 37.838609) (end 232.76359 34.7) (width 0.25) (layer F.Cu) (net 14))
  (segment (start 229.624981 39.095019) (end 229.624981 37.838609) (width 0.25) (layer F.Cu) (net 14))
  (segment (start 228 40.72) (end 229.624981 39.095019) (width 0.25) (layer F.Cu) (net 14))
  (segment (start 232.76359 34.7) (end 234.2 34.7) (width 0.25) (layer F.Cu) (net 14))
  (segment (start 234.2 34.425) (end 234.675 33.95) (width 0.25) (layer F.Cu) (net 14))
  (segment (start 234.675 33.95) (end 235.2 33.95) (width 0.25) (layer F.Cu) (net 14))
  (segment (start 234.2 34.7) (end 234.2 34.425) (width 0.25) (layer F.Cu) (net 14))
  (segment (start 233.95 30.2) (end 235.1 31.35) (width 0.25) (layer F.Cu) (net 15))
  (segment (start 233.95 30.1) (end 233.95 30.2) (width 0.25) (layer F.Cu) (net 15))
  (segment (start 236.05 31.35) (end 235.1 31.35) (width 0.25) (layer F.Cu) (net 15))
  (segment (start 236.064998 31.35) (end 236.05 31.35) (width 0.25) (layer F.Cu) (net 15))
  (segment (start 236.604344 31.889346) (end 236.064998 31.35) (width 0.25) (layer F.Cu) (net 15))
  (segment (start 237.512346 31.889346) (end 236.604344 31.889346) (width 0.25) (layer F.Cu) (net 15))
  (segment (start 237.6 32.673002) (end 237.512346 32.585348) (width 0.25) (layer F.Cu) (net 15))
  (segment (start 237.512346 32.585348) (end 237.512346 31.889346) (width 0.25) (layer F.Cu) (net 15))
  (segment (start 237.6 33.95) (end 237.6 32.673002) (width 0.25) (layer F.Cu) (net 15))
  (via (at 233.3 29.648414) (size 0.8) (drill 0.4) (layers F.Cu B.Cu) (net 15))
  (segment (start 233.751586 30.1) (end 233.3 29.648414) (width 0.25) (layer F.Cu) (net 15))
  (segment (start 233.95 30.1) (end 233.751586 30.1) (width 0.25) (layer F.Cu) (net 15))
  (segment (start 228.849999 34.790001) (end 228 35.64) (width 0.25) (layer B.Cu) (net 15))
  (segment (start 232.078584 29.648414) (end 229.175001 32.551997) (width 0.25) (layer B.Cu) (net 15))
  (segment (start 229.175001 34.464999) (end 228.849999 34.790001) (width 0.25) (layer B.Cu) (net 15))
  (segment (start 229.175001 32.551997) (end 229.175001 34.464999) (width 0.25) (layer B.Cu) (net 15))
  (segment (start 233.3 29.648414) (end 232.078584 29.648414) (width 0.25) (layer B.Cu) (net 15))
  (segment (start 243.3 41) (end 242.25 41) (width 0.25) (layer F.Cu) (net 16))
  (segment (start 245.550009 45.650009) (end 245.550009 43.250009) (width 0.25) (layer F.Cu) (net 16))
  (segment (start 245.550009 43.250009) (end 243.3 41) (width 0.25) (layer F.Cu) (net 16))
  (segment (start 247.9 48.4) (end 248.3 48.4) (width 0.25) (layer F.Cu) (net 16))
  (segment (start 246.6 47.1) (end 247.9 48.4) (width 0.25) (layer F.Cu) (net 16))
  (segment (start 246.6 46.4) (end 246.6 47.1) (width 0.25) (layer F.Cu) (net 16))
  (segment (start 246.6 46.4) (end 245.9 46.4) (width 0.25) (layer F.Cu) (net 16))
  (segment (start 245.9 45.97499) (end 245.550009 45.624999) (width 0.25) (layer F.Cu) (net 16))
  (segment (start 245.9 46.4) (end 245.9 45.97499) (width 0.25) (layer F.Cu) (net 16))
  (segment (start 245.7 48.4) (end 245.76 48.4) (width 0.25) (layer F.Cu) (net 17))
  (segment (start 240.8 43.5) (end 245.7 48.4) (width 0.25) (layer F.Cu) (net 17))
  (segment (start 240.8 42.45) (end 240.8 43.5) (width 0.25) (layer F.Cu) (net 17))
  (segment (start 240 45.18) (end 243.22 48.4) (width 0.25) (layer F.Cu) (net 18))
  (segment (start 240 42.45) (end 240 45.18) (width 0.25) (layer F.Cu) (net 18))
  (segment (start 239.2 46.92) (end 240.68 48.4) (width 0.25) (layer F.Cu) (net 19))
  (segment (start 239.2 42.45) (end 239.2 46.92) (width 0.25) (layer F.Cu) (net 19))
  (segment (start 238.4 48.14) (end 238.14 48.4) (width 0.25) (layer F.Cu) (net 20))
  (segment (start 238.4 42.45) (end 238.4 48.14) (width 0.25) (layer F.Cu) (net 20))
  (segment (start 237.6 46.4) (end 235.6 48.4) (width 0.25) (layer F.Cu) (net 21))
  (segment (start 237.6 42.45) (end 237.6 46.4) (width 0.25) (layer F.Cu) (net 21))
  (segment (start 236.8 44.66) (end 233.06 48.4) (width 0.25) (layer F.Cu) (net 22))
  (segment (start 236.8 42.45) (end 236.8 44.66) (width 0.25) (layer F.Cu) (net 22))
  (segment (start 231.369999 47.550001) (end 230.52 48.4) (width 0.25) (layer F.Cu) (net 23))
  (segment (start 231.949999 47.550001) (end 231.369999 47.550001) (width 0.25) (layer F.Cu) (net 23))
  (segment (start 236 43.5) (end 231.949999 47.550001) (width 0.25) (layer F.Cu) (net 23))
  (segment (start 236 42.45) (end 236 43.5) (width 0.25) (layer F.Cu) (net 23))
  (via (at 239.9 35.2) (size 0.8) (drill 0.4) (layers F.Cu B.Cu) (net 24))
  (segment (start 240 35.1) (end 239.9 35.2) (width 0.25) (layer F.Cu) (net 24))
  (segment (start 240 33.95) (end 240 35.1) (width 0.25) (layer F.Cu) (net 24))
  (segment (start 240.527001 33.986464) (end 241.186464 33.986464) (width 0.25) (layer B.Cu) (net 24))
  (segment (start 239.9 34.613465) (end 240.527001 33.986464) (width 0.25) (layer B.Cu) (net 24))
  (segment (start 239.9 35.2) (end 239.9 34.613465) (width 0.25) (layer B.Cu) (net 24))
  (segment (start 245.56 38.36) (end 248.3 38.36) (width 0.25) (layer B.Cu) (net 24))
  (segment (start 241.186464 33.986464) (end 245.56 38.36) (width 0.25) (layer B.Cu) (net 24))
  (segment (start 240.8 33.95) (end 240.8 34.636463) (width 0.25) (layer F.Cu) (net 25))
  (via (at 240.875002 34.711464) (size 0.8) (drill 0.4) (layers F.Cu B.Cu) (net 25))
  (segment (start 240.8 34.636462) (end 240.875002 34.711464) (width 0.25) (layer F.Cu) (net 25))
  (segment (start 240.8 33.95) (end 240.8 34.636462) (width 0.25) (layer F.Cu) (net 25))
  (segment (start 247.063538 40.9) (end 247.1 40.9) (width 0.25) (layer B.Cu) (net 25))
  (segment (start 240.875002 34.711464) (end 247.063538 40.9) (width 0.25) (layer B.Cu) (net 25))
  (segment (start 247.1 40.9) (end 248.3 40.9) (width 0.25) (layer B.Cu) (net 25))
  (segment (start 247.063537 40.9) (end 247.1 40.9) (width 0.25) (layer B.Cu) (net 25))
  (segment (start 248.3 43.227109) (end 248.3 43.44) (width 0.25) (layer B.Cu) (net 26))
  (via (at 240.869458 35.731226) (size 0.8) (drill 0.4) (layers F.Cu B.Cu) (net 26))
  (segment (start 241.200684 35.4) (end 240.869458 35.731226) (width 0.25) (layer F.Cu) (net 26))
  (segment (start 242.25 35.4) (end 241.200684 35.4) (width 0.25) (layer F.Cu) (net 26))
  (segment (start 248.3 43.161768) (end 248.3 43.44) (width 0.25) (layer B.Cu) (net 26))
  (segment (start 240.869458 35.731226) (end 248.3 43.161768) (width 0.25) (layer B.Cu) (net 26))
  (segment (start 242.25 36.2) (end 241.529947 36.2) (width 0.25) (layer F.Cu) (net 27))
  (segment (start 240.235122 36.456227) (end 239.994719 36.215824) (width 0.25) (layer F.Cu) (net 27))
  (via (at 239.994719 36.215824) (size 0.8) (drill 0.4) (layers F.Cu B.Cu) (net 27))
  (segment (start 241.217459 36.456227) (end 240.235122 36.456227) (width 0.25) (layer F.Cu) (net 27))
  (segment (start 241.473686 36.2) (end 241.217459 36.456227) (width 0.25) (layer F.Cu) (net 27))
  (segment (start 242.25 36.2) (end 241.473686 36.2) (width 0.25) (layer F.Cu) (net 27))
  (segment (start 240.16523 36.1) (end 240.56523 36.5) (width 0.25) (layer B.Cu) (net 27))
  (segment (start 240.110543 36.1) (end 240.16523 36.1) (width 0.25) (layer B.Cu) (net 27))
  (segment (start 239.994719 36.215824) (end 240.110543 36.1) (width 0.25) (layer B.Cu) (net 27))
  (segment (start 247.450001 45.130001) (end 248.3 45.98) (width 0.25) (layer B.Cu) (net 27))
  (segment (start 247.124999 42.875999) (end 247.124999 44.804999) (width 0.25) (layer B.Cu) (net 27))
  (segment (start 247.124999 44.804999) (end 247.450001 45.130001) (width 0.25) (layer B.Cu) (net 27))
  (segment (start 240.749 36.5) (end 247.124999 42.875999) (width 0.25) (layer B.Cu) (net 27))
  (segment (start 240.56523 36.5) (end 240.749 36.5) (width 0.25) (layer B.Cu) (net 27))
  (segment (start 243.35 32.72) (end 243.35 34.1) (width 0.25) (layer F.Cu) (net 30))
  (segment (start 243.18 32.55) (end 243.35 32.72) (width 0.25) (layer F.Cu) (net 30))
  (segment (start 242.4 32.55) (end 243.18 32.55) (width 0.25) (layer F.Cu) (net 30))
  (via (at 233.3 31.3) (size 0.8) (drill 0.4) (layers F.Cu B.Cu) (net 30))
  (segment (start 234 31.682053) (end 233.367179 31.049232) (width 0.25) (layer F.Cu) (net 30))
  (segment (start 234 31.7) (end 234 31.682053) (width 0.25) (layer F.Cu) (net 30))
  (via (at 238.3 32) (size 0.8) (drill 0.4) (layers F.Cu B.Cu) (net 30))
  (segment (start 242.087347 32.237347) (end 242.4 32.55) (width 0.25) (layer F.Cu) (net 30))
  (segment (start 233.7 31.7) (end 233.3 31.3) (width 0.25) (layer F.Cu) (net 30))
  (segment (start 234 31.7) (end 233.7 31.7) (width 0.25) (layer F.Cu) (net 30))
  (segment (start 238.850937 32.237347) (end 242.087347 32.237347) (width 0.25) (layer F.Cu) (net 30))
  (segment (start 238.61359 32) (end 238.850937 32.237347) (width 0.25) (layer F.Cu) (net 30))
  (segment (start 238.3 32) (end 238.61359 32) (width 0.25) (layer F.Cu) (net 30))
  (segment (start 237.349232 31.049232) (end 238.3 32) (width 0.25) (layer B.Cu) (net 30))
  (segment (start 233.367179 31.049232) (end 237.349232 31.049232) (width 0.25) (layer B.Cu) (net 30))
  (segment (start 232.15 31.7) (end 231.3 30.85) (width 0.25) (layer F.Cu) (net 31))
  (segment (start 232.4 31.7) (end 232.15 31.7) (width 0.25) (layer F.Cu) (net 31))
  (segment (start 233.65 40.3) (end 233.75 40.2) (width 0.25) (layer F.Cu) (net 32))
  (segment (start 231.8 40.3) (end 233.65 40.3) (width 0.25) (layer F.Cu) (net 32))
  (segment (start 233.75 41.525) (end 233.75 41) (width 0.25) (layer F.Cu) (net 33))
  (segment (start 233 42.7) (end 233.75 41.95) (width 0.25) (layer F.Cu) (net 33))
  (segment (start 233.75 41.95) (end 233.75 41.525) (width 0.25) (layer F.Cu) (net 33))
  (segment (start 231.8 42.7) (end 233 42.7) (width 0.25) (layer F.Cu) (net 33))

  (zone (net 1) (net_name GND) (layer B.Cu) (tstamp 0) (hatch edge 0.508)
    (connect_pads (clearance 0.508))
    (min_thickness 0.254)
    (fill yes (arc_segments 32) (thermal_gap 0.508) (thermal_bridge_width 0.508))
    (polygon
      (pts
        (xy 249.7 49.8) (xy 226.6 49.8) (xy 226.6 26.8) (xy 249.7 26.8)
      )
    )
    (filled_polygon
      (pts
        (xy 232.640226 30.452351) (xy 232.672936 30.474207) (xy 232.640226 30.496063) (xy 232.496063 30.640226) (xy 232.382795 30.809744)
        (xy 232.304774 30.998102) (xy 232.265 31.198061) (xy 232.265 31.401939) (xy 232.304774 31.601898) (xy 232.382795 31.790256)
        (xy 232.496063 31.959774) (xy 232.640226 32.103937) (xy 232.809744 32.217205) (xy 232.998102 32.295226) (xy 233.198061 32.335)
        (xy 233.401939 32.335) (xy 233.601898 32.295226) (xy 233.790256 32.217205) (xy 233.959774 32.103937) (xy 234.103937 31.959774)
        (xy 234.204526 31.809232) (xy 236.267564 31.809232) (xy 236.136783 31.896617) (xy 235.99262 32.04078) (xy 235.879352 32.210298)
        (xy 235.801331 32.398656) (xy 235.761557 32.598615) (xy 235.761557 32.802493) (xy 235.801331 33.002452) (xy 235.879352 33.19081)
        (xy 235.99262 33.360328) (xy 236.136783 33.504491) (xy 236.306301 33.617759) (xy 236.494659 33.69578) (xy 236.694618 33.735554)
        (xy 236.772331 33.735554) (xy 236.904309 33.806099) (xy 237.04757 33.849556) (xy 237.159223 33.860553) (xy 237.159233 33.860553)
        (xy 237.196555 33.864229) (xy 237.233878 33.860553) (xy 238.138005 33.860553) (xy 237.531135 34.467424) (xy 237.459774 34.396063)
        (xy 237.290256 34.282795) (xy 237.101898 34.204774) (xy 236.901939 34.165) (xy 236.698061 34.165) (xy 236.498102 34.204774)
        (xy 236.309744 34.282795) (xy 236.140226 34.396063) (xy 236.096289 34.44) (xy 235.235913 34.44) (xy 234.696111 33.900199)
        (xy 234.696111 33.838061) (xy 234.656337 33.638102) (xy 234.578316 33.449744) (xy 234.465048 33.280226) (xy 234.320885 33.136063)
        (xy 234.151367 33.022795) (xy 233.963009 32.944774) (xy 233.76305 32.905) (xy 233.559172 32.905) (xy 233.359213 32.944774)
        (xy 233.170855 33.022795) (xy 233.001337 33.136063) (xy 232.857174 33.280226) (xy 232.743906 33.449744) (xy 232.665885 33.638102)
        (xy 232.626111 33.838061) (xy 232.626111 34.041939) (xy 232.665885 34.241898) (xy 232.743906 34.430256) (xy 232.857174 34.599774)
        (xy 233.001337 34.743937) (xy 233.170855 34.857205) (xy 233.359213 34.935226) (xy 233.559172 34.975) (xy 233.62131 34.975)
        (xy 234.357312 35.711003) (xy 234.38111 35.740001) (xy 234.410108 35.763799) (xy 234.496834 35.834974) (xy 234.606986 35.893852)
        (xy 234.628864 35.905546) (xy 234.772125 35.949003) (xy 234.883778 35.96) (xy 234.883787 35.96) (xy 234.92111 35.963676)
        (xy 234.958433 35.96) (xy 235.369179 35.96) (xy 235.358861 36.011875) (xy 235.358861 36.215753) (xy 235.398635 36.415712)
        (xy 235.476656 36.60407) (xy 235.589924 36.773588) (xy 235.734087 36.917751) (xy 235.903605 37.031019) (xy 236.091963 37.10904)
        (xy 236.291922 37.148814) (xy 236.4958 37.148814) (xy 236.695759 37.10904) (xy 236.884117 37.031019) (xy 237.053635 36.917751)
        (xy 237.108585 36.862801) (xy 237.251793 36.81936) (xy 237.383822 36.748788) (xy 237.499547 36.653815) (xy 237.52335 36.624811)
        (xy 238.053574 36.094587) (xy 238.066271 36.158417) (xy 238.144292 36.346775) (xy 238.25756 36.516293) (xy 238.401723 36.660456)
        (xy 238.571241 36.773724) (xy 238.759599 36.851745) (xy 238.959558 36.891519) (xy 239.163436 36.891519) (xy 239.199525 36.884341)
        (xy 239.334945 37.019761) (xy 239.504463 37.133029) (xy 239.692821 37.21105) (xy 239.89278 37.250824) (xy 240.096658 37.250824)
        (xy 240.293302 37.211709) (xy 240.416244 37.249003) (xy 240.423962 37.249763) (xy 246.364999 43.190801) (xy 246.365 44.767667)
        (xy 246.361323 44.804999) (xy 246.375997 44.953984) (xy 246.419453 45.097245) (xy 246.490025 45.229275) (xy 246.5612 45.316001)
        (xy 246.584999 45.345) (xy 246.613997 45.368798) (xy 246.858791 45.613592) (xy 246.815 45.83374) (xy 246.815 46.12626)
        (xy 246.872068 46.413158) (xy 246.98401 46.683411) (xy 247.146525 46.926632) (xy 247.189249 46.969356) (xy 247.095506 47.019463)
        (xy 246.998815 47.098815) (xy 246.919463 47.195506) (xy 246.860498 47.30582) (xy 246.838487 47.37838) (xy 246.706632 47.246525)
        (xy 246.463411 47.08401) (xy 246.193158 46.972068) (xy 245.90626 46.915) (xy 245.61374 46.915) (xy 245.326842 46.972068)
        (xy 245.056589 47.08401) (xy 244.813368 47.246525) (xy 244.606525 47.453368) (xy 244.49 47.62776) (xy 244.373475 47.453368)
        (xy 244.166632 47.246525) (xy 243.923411 47.08401) (xy 243.653158 46.972068) (xy 243.36626 46.915) (xy 243.07374 46.915)
        (xy 242.786842 46.972068) (xy 242.516589 47.08401) (xy 242.273368 47.246525) (xy 242.066525 47.453368) (xy 241.95 47.62776)
        (xy 241.833475 47.453368) (xy 241.626632 47.246525) (xy 241.383411 47.08401) (xy 241.113158 46.972068) (xy 240.82626 46.915)
        (xy 240.53374 46.915) (xy 240.246842 46.972068) (xy 239.976589 47.08401) (xy 239.733368 47.246525) (xy 239.526525 47.453368)
        (xy 239.41 47.62776) (xy 239.293475 47.453368) (xy 239.086632 47.246525) (xy 238.843411 47.08401) (xy 238.573158 46.972068)
        (xy 238.28626 46.915) (xy 237.99374 46.915) (xy 237.706842 46.972068) (xy 237.436589 47.08401) (xy 237.193368 47.246525)
        (xy 236.986525 47.453368) (xy 236.87 47.62776) (xy 236.753475 47.453368) (xy 236.546632 47.246525) (xy 236.303411 47.08401)
        (xy 236.033158 46.972068) (xy 235.74626 46.915) (xy 235.45374 46.915) (xy 235.166842 46.972068) (xy 234.896589 47.08401)
        (xy 234.653368 47.246525) (xy 234.446525 47.453368) (xy 234.33 47.62776) (xy 234.213475 47.453368) (xy 234.006632 47.246525)
        (xy 233.763411 47.08401) (xy 233.493158 46.972068) (xy 233.20626 46.915) (xy 232.91374 46.915) (xy 232.626842 46.972068)
        (xy 232.356589 47.08401) (xy 232.113368 47.246525) (xy 231.906525 47.453368) (xy 231.79 47.62776) (xy 231.673475 47.453368)
        (xy 231.466632 47.246525) (xy 231.223411 47.08401) (xy 230.953158 46.972068) (xy 230.66626 46.915) (xy 230.37374 46.915)
        (xy 230.086842 46.972068) (xy 229.816589 47.08401) (xy 229.573368 47.246525) (xy 229.470823 47.34907) (xy 229.439502 47.24582)
        (xy 229.380537 47.135506) (xy 229.301185 47.038815) (xy 229.204494 46.959463) (xy 229.09418 46.900498) (xy 229.02162 46.878487)
        (xy 229.153475 46.746632) (xy 229.31599 46.503411) (xy 229.427932 46.233158) (xy 229.485 45.94626) (xy 229.485 45.65374)
        (xy 229.427932 45.366842) (xy 229.31599 45.096589) (xy 229.153475 44.853368) (xy 228.946632 44.646525) (xy 228.77224 44.53)
        (xy 228.946632 44.413475) (xy 229.153475 44.206632) (xy 229.31599 43.963411) (xy 229.427932 43.693158) (xy 229.485 43.40626)
        (xy 229.485 43.11374) (xy 229.427932 42.826842) (xy 229.31599 42.556589) (xy 229.153475 42.313368) (xy 228.946632 42.106525)
        (xy 228.77224 41.99) (xy 228.946632 41.873475) (xy 229.153475 41.666632) (xy 229.31599 41.423411) (xy 229.427932 41.153158)
        (xy 229.485 40.86626) (xy 229.485 40.57374) (xy 229.427932 40.286842) (xy 229.31599 40.016589) (xy 229.153475 39.773368)
        (xy 228.946632 39.566525) (xy 228.764466 39.444805) (xy 228.881355 39.375178) (xy 229.097588 39.180269) (xy 229.271641 38.94692)
        (xy 229.396825 38.684099) (xy 229.441476 38.53689) (xy 229.320155 38.307) (xy 228.127 38.307) (xy 228.127 38.327)
        (xy 227.873 38.327) (xy 227.873 38.307) (xy 227.853 38.307) (xy 227.853 38.053) (xy 227.873 38.053)
        (xy 227.873 38.033) (xy 228.127 38.033) (xy 228.127 38.053) (xy 229.320155 38.053) (xy 229.441476 37.82311)
        (xy 229.396825 37.675901) (xy 229.271641 37.41308) (xy 229.097588 37.179731) (xy 228.881355 36.984822) (xy 228.764466 36.915195)
        (xy 228.946632 36.793475) (xy 229.153475 36.586632) (xy 229.31599 36.343411) (xy 229.427932 36.073158) (xy 229.485 35.78626)
        (xy 229.485 35.49374) (xy 229.441209 35.273592) (xy 229.685998 35.028803) (xy 229.715002 35.005) (xy 229.809975 34.889275)
        (xy 229.880547 34.757246) (xy 229.924004 34.613985) (xy 229.935001 34.502332) (xy 229.935001 34.502323) (xy 229.938677 34.465)
        (xy 229.935001 34.427677) (xy 229.935001 32.866798) (xy 230.34 32.461799) (xy 230.340001 36.662668) (xy 230.336324 36.7)
        (xy 230.340001 36.737333) (xy 230.350998 36.848986) (xy 230.3639 36.891519) (xy 230.394454 36.992246) (xy 230.465026 37.124276)
        (xy 230.532527 37.206525) (xy 230.56 37.240001) (xy 230.588998 37.263799) (xy 231.222652 37.897454) (xy 231.222652 37.959591)
        (xy 231.262426 38.15955) (xy 231.340447 38.347908) (xy 231.453715 38.517426) (xy 231.597878 38.661589) (xy 231.767396 38.774857)
        (xy 231.955754 38.852878) (xy 232.155713 38.892652) (xy 232.359591 38.892652) (xy 232.55955 38.852878) (xy 232.747908 38.774857)
        (xy 232.917426 38.661589) (xy 233.061589 38.517426) (xy 233.174857 38.347908) (xy 233.252878 38.15955) (xy 233.292652 37.959591)
        (xy 233.292652 37.755713) (xy 233.252878 37.555754) (xy 233.174857 37.367396) (xy 233.061589 37.197878) (xy 232.917426 37.053715)
        (xy 232.747908 36.940447) (xy 232.55955 36.862426) (xy 232.359591 36.822652) (xy 232.297454 36.822652) (xy 231.86 36.385199)
        (xy 231.86 32.403711) (xy 231.903937 32.359774) (xy 232.017205 32.190256) (xy 232.095226 32.001898) (xy 232.135 31.801939)
        (xy 232.135 31.598061) (xy 232.095226 31.398102) (xy 232.017205 31.209744) (xy 231.903937 31.040226) (xy 231.832756 30.969045)
        (xy 232.393387 30.408414) (xy 232.596289 30.408414)
      )
    )
    (filled_polygon
      (pts
        (xy 247.095506 29.580537) (xy 247.20582 29.639502) (xy 247.286466 29.663966) (xy 247.202412 29.739731) (xy 247.028359 29.97308)
        (xy 246.903175 30.235901) (xy 246.858524 30.38311) (xy 246.979845 30.613) (xy 248.173 30.613) (xy 248.173 30.593)
        (xy 248.427 30.593) (xy 248.427 30.613) (xy 248.447 30.613) (xy 248.447 30.867) (xy 248.427 30.867)
        (xy 248.427 30.887) (xy 248.173 30.887) (xy 248.173 30.867) (xy 246.979845 30.867) (xy 246.858524 31.09689)
        (xy 246.903175 31.244099) (xy 247.028359 31.50692) (xy 247.202412 31.740269) (xy 247.418645 31.935178) (xy 247.535534 32.004805)
        (xy 247.353368 32.126525) (xy 247.146525 32.333368) (xy 246.98401 32.576589) (xy 246.872068 32.846842) (xy 246.815 33.13374)
        (xy 246.815 33.42626) (xy 246.872068 33.713158) (xy 246.98401 33.983411) (xy 247.146525 34.226632) (xy 247.353368 34.433475)
        (xy 247.52776 34.55) (xy 247.353368 34.666525) (xy 247.146525 34.873368) (xy 246.98401 35.116589) (xy 246.872068 35.386842)
        (xy 246.815 35.67374) (xy 246.815 35.96626) (xy 246.872068 36.253158) (xy 246.98401 36.523411) (xy 247.146525 36.766632)
        (xy 247.353368 36.973475) (xy 247.52776 37.09) (xy 247.353368 37.206525) (xy 247.146525 37.413368) (xy 247.021822 37.6)
        (xy 245.874802 37.6) (xy 245.056263 36.781462) (xy 245.117205 36.690256) (xy 245.195226 36.501898) (xy 245.235 36.301939)
        (xy 245.235 36.098061) (xy 245.195226 35.898102) (xy 245.117205 35.709744) (xy 245.003937 35.540226) (xy 244.96 35.496289)
        (xy 244.96 30.154801) (xy 245.426729 29.688072) (xy 246.69 29.688072) (xy 246.814482 29.675812) (xy 246.93418 29.639502)
        (xy 247.044494 29.580537) (xy 247.07 29.559605)
      )
    )
    (filled_polygon
      (pts
        (xy 228.187 28.073) (xy 230.473 28.073) (xy 230.473 28.053) (xy 230.727 28.053) (xy 230.727 28.073)
        (xy 230.747 28.073) (xy 230.747 28.327) (xy 230.727 28.327) (xy 230.727 29.520155) (xy 230.95689 29.641476)
        (xy 231.034155 29.61804) (xy 229.169404 31.482793) (xy 229.31599 31.263411) (xy 229.427932 30.993158) (xy 229.485 30.70626)
        (xy 229.485 30.41374) (xy 229.427932 30.126842) (xy 229.31599 29.856589) (xy 229.153475 29.613368) (xy 228.946632 29.406525)
        (xy 228.929535 29.395101) (xy 229.060269 29.297588) (xy 229.255178 29.081355) (xy 229.33 28.955745) (xy 229.404822 29.081355)
        (xy 229.599731 29.297588) (xy 229.83308 29.471641) (xy 230.095901 29.596825) (xy 230.24311 29.641476) (xy 230.473 29.520155)
        (xy 230.473 28.327) (xy 228.187 28.327) (xy 228.187 28.347) (xy 227.933 28.347) (xy 227.933 28.327)
        (xy 227.913 28.327) (xy 227.913 28.073) (xy 227.933 28.073) (xy 227.933 28.053) (xy 228.187 28.053)
      )
    )
  )
)
